%YAML 1.1
%TAG !u! tag:unity3d.com,2011:
--- !u!1001 &2901139302002937215
PrefabInstance:
  m_ObjectHideFlags: 0
  serializedVersion: 2
  m_Modification:
    m_TransformParent: {fileID: 0}
    m_Modifications:
    - target: {fileID: 2335639342557721052, guid: df0b7087f8e964f4b9fe6a8cd10cdde1,
        type: 3}
      propertyPath: m_Materials.Array.data[0]
      value: 
      objectReference: {fileID: 2100000, guid: f69c887618bc36b46b95958c0393c2b5, type: 2}
    - target: {fileID: 3247190846040637655, guid: df0b7087f8e964f4b9fe6a8cd10cdde1,
        type: 3}
      propertyPath: m_LocalPosition.x
      value: 0
      objectReference: {fileID: 0}
    - target: {fileID: 3247190846040637655, guid: df0b7087f8e964f4b9fe6a8cd10cdde1,
        type: 3}
      propertyPath: m_LocalPosition.y
      value: 0
      objectReference: {fileID: 0}
    - target: {fileID: 3247190846040637655, guid: df0b7087f8e964f4b9fe6a8cd10cdde1,
        type: 3}
      propertyPath: m_LocalPosition.z
      value: 0
      objectReference: {fileID: 0}
    - target: {fileID: 3247190846040637655, guid: df0b7087f8e964f4b9fe6a8cd10cdde1,
        type: 3}
      propertyPath: m_LocalRotation.x
      value: 0
      objectReference: {fileID: 0}
    - target: {fileID: 3247190846040637655, guid: df0b7087f8e964f4b9fe6a8cd10cdde1,
        type: 3}
      propertyPath: m_LocalRotation.y
      value: 0.7071068
      objectReference: {fileID: 0}
    - target: {fileID: 3247190846040637655, guid: df0b7087f8e964f4b9fe6a8cd10cdde1,
        type: 3}
      propertyPath: m_LocalRotation.z
      value: 0
      objectReference: {fileID: 0}
    - target: {fileID: 3247190846040637655, guid: df0b7087f8e964f4b9fe6a8cd10cdde1,
        type: 3}
      propertyPath: m_LocalRotation.w
      value: 0.7071068
      objectReference: {fileID: 0}
    - target: {fileID: 3247190846040637655, guid: df0b7087f8e964f4b9fe6a8cd10cdde1,
        type: 3}
      propertyPath: m_RootOrder
      value: 0
      objectReference: {fileID: 0}
    - target: {fileID: 3247190846040637655, guid: df0b7087f8e964f4b9fe6a8cd10cdde1,
        type: 3}
      propertyPath: m_LocalEulerAnglesHint.x
      value: 0
      objectReference: {fileID: 0}
    - target: {fileID: 3247190846040637655, guid: df0b7087f8e964f4b9fe6a8cd10cdde1,
        type: 3}
      propertyPath: m_LocalEulerAnglesHint.y
      value: 90
      objectReference: {fileID: 0}
    - target: {fileID: 3247190846040637655, guid: df0b7087f8e964f4b9fe6a8cd10cdde1,
        type: 3}
      propertyPath: m_LocalEulerAnglesHint.z
      value: 0
      objectReference: {fileID: 0}
    - target: {fileID: 4759317137163599181, guid: df0b7087f8e964f4b9fe6a8cd10cdde1,
        type: 3}
      propertyPath: m_IsTrigger
      value: 1
      objectReference: {fileID: 0}
    - target: {fileID: 5373761059623608362, guid: df0b7087f8e964f4b9fe6a8cd10cdde1,
        type: 3}
      propertyPath: m_Name
      value: key_blue
      objectReference: {fileID: 0}
    - target: {fileID: 8781779380896613588, guid: df0b7087f8e964f4b9fe6a8cd10cdde1,
        type: 3}
      propertyPath: keyType
      value: 1
      objectReference: {fileID: 0}
    - target: {fileID: 8882565647513652011, guid: df0b7087f8e964f4b9fe6a8cd10cdde1,
        type: 3}
      propertyPath: m_Materials.Array.data[0]
      value: 
      objectReference: {fileID: 2100000, guid: 5e49e4ee9ec809a44a8c2b2198e43a12, type: 2}
    m_RemovedComponents: []
  m_SourcePrefab: {fileID: 100100000, guid: df0b7087f8e964f4b9fe6a8cd10cdde1, type: 3}
