%YAML 1.1
%TAG !u! tag:unity3d.com,2011:
--- !u!114 &-4486926309327388538
MonoBehaviour:
  m_ObjectHideFlags: 0
  m_CorrespondingSourceObject: {fileID: 0}
  m_PrefabInstance: {fileID: 0}
  m_PrefabAsset: {fileID: 0}
  m_GameObject: {fileID: 5933277422178921004}
  m_Enabled: 1
  m_EditorHideFlags: 0
  m_Script: {fileID: 11500000, guid: da9f934d0c09a0549ba794b8be072777, type: 3}
  m_Name: 
  m_EditorClassIdentifier: 
  door: {fileID: 8497702351961151717}
  rotAngle: {x: 0, y: 90, z: 0}
--- !u!1001 &4869420792226574587
PrefabInstance:
  m_ObjectHideFlags: 0
  serializedVersion: 2
  m_Modification:
    m_TransformParent: {fileID: 0}
    m_Modifications:
    - target: {fileID: 1280310957909809879, guid: 861dd9b45a883d44ba0af8760d1abf42,
        type: 3}
      propertyPath: m_Name
      value: Classic Door
      objectReference: {fileID: 0}
    - target: {fileID: 8564806090458283658, guid: 861dd9b45a883d44ba0af8760d1abf42,
        type: 3}
      propertyPath: m_LocalPosition.x
      value: 0
      objectReference: {fileID: 0}
    - target: {fileID: 8564806090458283658, guid: 861dd9b45a883d44ba0af8760d1abf42,
        type: 3}
      propertyPath: m_LocalPosition.y
      value: 2
      objectReference: {fileID: 0}
    - target: {fileID: 8564806090458283658, guid: 861dd9b45a883d44ba0af8760d1abf42,
        type: 3}
      propertyPath: m_LocalPosition.z
      value: 0
      objectReference: {fileID: 0}
    - target: {fileID: 8564806090458283658, guid: 861dd9b45a883d44ba0af8760d1abf42,
        type: 3}
      propertyPath: m_LocalRotation.x
      value: -0
      objectReference: {fileID: 0}
    - target: {fileID: 8564806090458283658, guid: 861dd9b45a883d44ba0af8760d1abf42,
        type: 3}
      propertyPath: m_LocalRotation.y
      value: -0
      objectReference: {fileID: 0}
    - target: {fileID: 8564806090458283658, guid: 861dd9b45a883d44ba0af8760d1abf42,
        type: 3}
      propertyPath: m_LocalRotation.z
      value: -0
      objectReference: {fileID: 0}
    - target: {fileID: 8564806090458283658, guid: 861dd9b45a883d44ba0af8760d1abf42,
        type: 3}
      propertyPath: m_LocalRotation.w
      value: 1
      objectReference: {fileID: 0}
    - target: {fileID: 8564806090458283658, guid: 861dd9b45a883d44ba0af8760d1abf42,
        type: 3}
      propertyPath: m_RootOrder
      value: 0
      objectReference: {fileID: 0}
    - target: {fileID: 8564806090458283658, guid: 861dd9b45a883d44ba0af8760d1abf42,
        type: 3}
      propertyPath: m_LocalEulerAnglesHint.x
      value: 0
      objectReference: {fileID: 0}
    - target: {fileID: 8564806090458283658, guid: 861dd9b45a883d44ba0af8760d1abf42,
        type: 3}
      propertyPath: m_LocalEulerAnglesHint.y
      value: 0
      objectReference: {fileID: 0}
    - target: {fileID: 8564806090458283658, guid: 861dd9b45a883d44ba0af8760d1abf42,
        type: 3}
      propertyPath: m_LocalEulerAnglesHint.z
      value: 0
      objectReference: {fileID: 0}
    m_RemovedComponents:
    - {fileID: 1071365614834685030, guid: 861dd9b45a883d44ba0af8760d1abf42, type: 3}
  m_SourcePrefab: {fileID: 100100000, guid: 861dd9b45a883d44ba0af8760d1abf42, type: 3}
--- !u!1 &5933277422178921004 stripped
GameObject:
  m_CorrespondingSourceObject: {fileID: 1280310957909809879, guid: 861dd9b45a883d44ba0af8760d1abf42,
    type: 3}
  m_PrefabInstance: {fileID: 4869420792226574587}
  m_PrefabAsset: {fileID: 0}
--- !u!1 &8497702351961151717 stripped
GameObject:
  m_CorrespondingSourceObject: {fileID: 3926662981570897950, guid: 861dd9b45a883d44ba0af8760d1abf42,
    type: 3}
  m_PrefabInstance: {fileID: 4869420792226574587}
  m_PrefabAsset: {fileID: 0}
