%YAML 1.1
%TAG !u! tag:unity3d.com,2011:
--- !u!1 &763600039797414193
GameObject:
  m_ObjectHideFlags: 0
  m_CorrespondingSourceObject: {fileID: 0}
  m_PrefabInstance: {fileID: 0}
  m_PrefabAsset: {fileID: 0}
  serializedVersion: 6
  m_Component:
  - component: {fileID: 763600039797414192}
  - component: {fileID: 763600039797414199}
  m_Layer: 0
  m_Name: GhostModeManager
  m_TagString: Untagged
  m_Icon: {fileID: 0}
  m_NavMeshLayer: 0
  m_StaticEditorFlags: 0
  m_IsActive: 1
--- !u!4 &763600039797414192
Transform:
  m_ObjectHideFlags: 0
  m_CorrespondingSourceObject: {fileID: 0}
  m_PrefabInstance: {fileID: 0}
  m_PrefabAsset: {fileID: 0}
  m_GameObject: {fileID: 763600039797414193}
  m_LocalRotation: {x: 0, y: 0, z: 0, w: 1}
  m_LocalPosition: {x: 0, y: 0, z: 0}
  m_LocalScale: {x: 1, y: 1, z: 1}
  m_Children:
  - {fileID: 3391489715641128089}
  m_Father: {fileID: 0}
  m_RootOrder: 0
  m_LocalEulerAnglesHint: {x: 0, y: 0, z: 0}
--- !u!114 &763600039797414199
MonoBehaviour:
  m_ObjectHideFlags: 0
  m_CorrespondingSourceObject: {fileID: 0}
  m_PrefabInstance: {fileID: 0}
  m_PrefabAsset: {fileID: 0}
  m_GameObject: {fileID: 763600039797414193}
  m_Enabled: 1
  m_EditorHideFlags: 0
  m_Script: {fileID: 11500000, guid: f12af602cb0d19246866205698bad317, type: 3}
  m_Name: 
  m_EditorClassIdentifier: 
  isGhostModeEnabled: 0
  ghostVolume: {fileID: 3391489715641128095}
--- !u!1001 &763600038762489957
PrefabInstance:
  m_ObjectHideFlags: 0
  serializedVersion: 2
  m_Modification:
    m_TransformParent: {fileID: 763600039797414192}
    m_Modifications:
    - target: {fileID: 2704455410483969274, guid: a69f01d75ae6dc040bc5d33cf81e5021,
        type: 3}
      propertyPath: m_Name
      value: GHOST volume
      objectReference: {fileID: 0}
    - target: {fileID: 2704455410483969274, guid: a69f01d75ae6dc040bc5d33cf81e5021,
        type: 3}
      propertyPath: m_IsActive
      value: 0
      objectReference: {fileID: 0}
    - target: {fileID: 2704455410483969276, guid: a69f01d75ae6dc040bc5d33cf81e5021,
        type: 3}
      propertyPath: m_LocalPosition.x
      value: -18.929932
      objectReference: {fileID: 0}
    - target: {fileID: 2704455410483969276, guid: a69f01d75ae6dc040bc5d33cf81e5021,
        type: 3}
      propertyPath: m_LocalPosition.y
      value: 9.60677
      objectReference: {fileID: 0}
    - target: {fileID: 2704455410483969276, guid: a69f01d75ae6dc040bc5d33cf81e5021,
        type: 3}
      propertyPath: m_LocalPosition.z
      value: 13.809736
      objectReference: {fileID: 0}
    - target: {fileID: 2704455410483969276, guid: a69f01d75ae6dc040bc5d33cf81e5021,
        type: 3}
      propertyPath: m_LocalRotation.x
      value: -0
      objectReference: {fileID: 0}
    - target: {fileID: 2704455410483969276, guid: a69f01d75ae6dc040bc5d33cf81e5021,
        type: 3}
      propertyPath: m_LocalRotation.y
      value: -0
      objectReference: {fileID: 0}
    - target: {fileID: 2704455410483969276, guid: a69f01d75ae6dc040bc5d33cf81e5021,
        type: 3}
      propertyPath: m_LocalRotation.z
      value: -0
      objectReference: {fileID: 0}
    - target: {fileID: 2704455410483969276, guid: a69f01d75ae6dc040bc5d33cf81e5021,
        type: 3}
      propertyPath: m_LocalRotation.w
      value: 1
      objectReference: {fileID: 0}
    - target: {fileID: 2704455410483969276, guid: a69f01d75ae6dc040bc5d33cf81e5021,
        type: 3}
      propertyPath: m_RootOrder
      value: 0
      objectReference: {fileID: 0}
    - target: {fileID: 2704455410483969276, guid: a69f01d75ae6dc040bc5d33cf81e5021,
        type: 3}
      propertyPath: m_LocalEulerAnglesHint.x
      value: 0
      objectReference: {fileID: 0}
    - target: {fileID: 2704455410483969276, guid: a69f01d75ae6dc040bc5d33cf81e5021,
        type: 3}
      propertyPath: m_LocalEulerAnglesHint.y
      value: 0
      objectReference: {fileID: 0}
    - target: {fileID: 2704455410483969276, guid: a69f01d75ae6dc040bc5d33cf81e5021,
        type: 3}
      propertyPath: m_LocalEulerAnglesHint.z
      value: 0
      objectReference: {fileID: 0}
    m_RemovedComponents: []
  m_SourcePrefab: {fileID: 100100000, guid: a69f01d75ae6dc040bc5d33cf81e5021, type: 3}
--- !u!1 &3391489715641128095 stripped
GameObject:
  m_CorrespondingSourceObject: {fileID: 2704455410483969274, guid: a69f01d75ae6dc040bc5d33cf81e5021,
    type: 3}
  m_PrefabInstance: {fileID: 763600038762489957}
  m_PrefabAsset: {fileID: 0}
--- !u!4 &3391489715641128089 stripped
Transform:
  m_CorrespondingSourceObject: {fileID: 2704455410483969276, guid: a69f01d75ae6dc040bc5d33cf81e5021,
    type: 3}
  m_PrefabInstance: {fileID: 763600038762489957}
  m_PrefabAsset: {fileID: 0}
