%YAML 1.1
%TAG !u! tag:unity3d.com,2011:
--- !u!1 &4017752454871812899
GameObject:
  m_ObjectHideFlags: 0
  m_CorrespondingSourceObject: {fileID: 0}
  m_PrefabInstance: {fileID: 0}
  m_PrefabAsset: {fileID: 0}
  serializedVersion: 6
  m_Component:
  - component: {fileID: 8587425457221090589}
  - component: {fileID: 3482115847696498512}
  m_Layer: 0
  m_Name: Material Manager
  m_TagString: Untagged
  m_Icon: {fileID: 0}
  m_NavMeshLayer: 0
  m_StaticEditorFlags: 0
  m_IsActive: 1
--- !u!4 &8587425457221090589
Transform:
  m_ObjectHideFlags: 0
  m_CorrespondingSourceObject: {fileID: 0}
  m_PrefabInstance: {fileID: 0}
  m_PrefabAsset: {fileID: 0}
  m_GameObject: {fileID: 4017752454871812899}
  m_LocalRotation: {x: 0, y: 0, z: 0, w: 1}
  m_LocalPosition: {x: 4.2468524, y: -13.880407, z: 45.644245}
  m_LocalScale: {x: 1, y: 1, z: 1}
  m_Children: []
  m_Father: {fileID: 0}
  m_RootOrder: 0
  m_LocalEulerAnglesHint: {x: 0, y: 0, z: 0}
--- !u!114 &3482115847696498512
MonoBehaviour:
  m_ObjectHideFlags: 0
  m_CorrespondingSourceObject: {fileID: 0}
  m_PrefabInstance: {fileID: 0}
  m_PrefabAsset: {fileID: 0}
  m_GameObject: {fileID: 4017752454871812899}
  m_Enabled: 1
  m_EditorHideFlags: 0
  m_Script: {fileID: 11500000, guid: 3b3b48008157ea348a55691bf78c7d10, type: 3}
  m_Name: 
  m_EditorClassIdentifier: 
  activeGroundCol: {r: 1, g: 0.6666667, b: 0.4745098, a: 1}
  disperseMat: {fileID: 2100000, guid: 99de0e6f5c01d764da7b18b20a19fe08, type: 2}
  ghostModeMat: {fileID: 2100000, guid: 29066c5176e17c04082a274a51e640ef, type: 2}
