%YAML 1.1
%TAG !u! tag:unity3d.com,2011:
--- !u!1 &572356944256214940
GameObject:
  m_ObjectHideFlags: 0
  m_CorrespondingSourceObject: {fileID: 0}
  m_PrefabInstance: {fileID: 0}
  m_PrefabAsset: {fileID: 0}
  serializedVersion: 6
  m_Component:
  - component: {fileID: 572356944256214938}
  - component: {fileID: 572356944256214941}
  m_Layer: 0
  m_Name: Spawn Door Manager
  m_TagString: Untagged
  m_Icon: {fileID: 0}
  m_NavMeshLayer: 0
  m_StaticEditorFlags: 0
  m_IsActive: 1
--- !u!4 &572356944256214938
Transform:
  m_ObjectHideFlags: 0
  m_CorrespondingSourceObject: {fileID: 0}
  m_PrefabInstance: {fileID: 0}
  m_PrefabAsset: {fileID: 0}
  m_GameObject: {fileID: 572356944256214940}
  m_LocalRotation: {x: 0, y: 0, z: 0, w: 1}
  m_LocalPosition: {x: 0, y: 0, z: 0}
  m_LocalScale: {x: 1, y: 1, z: 1}
  m_Children: []
  m_Father: {fileID: 0}
  m_RootOrder: 0
  m_LocalEulerAnglesHint: {x: 0, y: 0, z: 0}
--- !u!114 &572356944256214941
MonoBehaviour:
  m_ObjectHideFlags: 0
  m_CorrespondingSourceObject: {fileID: 0}
  m_PrefabInstance: {fileID: 0}
  m_PrefabAsset: {fileID: 0}
  m_GameObject: {fileID: 572356944256214940}
  m_Enabled: 1
  m_EditorHideFlags: 0
  m_Script: {fileID: 11500000, guid: c34ef559b81f11f469381de85724a278, type: 3}
  m_Name: 
  m_EditorClassIdentifier: 
  currentDoorType: 0
  currentPreviewType: 0
  doors:
  - {fileID: 31639968161159641, guid: 2398b87e9cb33a4469322ed4149b3465, type: 3}
  - {fileID: 8770698162478527244, guid: 52b39694912b570419128a6c5c0a2933, type: 3}
  - {fileID: 5586869860649877528, guid: 83a5d61ea060ac74287645a8273a1dd4, type: 3}
  previewDoors:
  - {fileID: 5586869860649877528, guid: ba61b83ec9ee53540bfc20b3ad364f1e, type: 3}
  - {fileID: 8770698162478527244, guid: e20eb9ae5d347ef4a846993f67446bfb, type: 3}
  - {fileID: 5586869860649877528, guid: ba61b83ec9ee53540bfc20b3ad364f1e, type: 3}
  isPreviewActive: 0
