# Blender v2.82 (sub 7) OBJ File: 'models.blend'
# www.blender.org
mtllib sparkles.mtl
o sparkle.001_Cube.002
v -0.570165 -0.065387 0.000939
v -1.236022 0.096001 0.000000
v -0.232479 0.096001 -0.257322
v 0.174831 0.733458 0.000972
v 0.000000 1.835148 0.000000
v 0.000000 0.323438 0.240449
v 0.570165 -0.065387 0.000939
v 1.236022 0.096001 0.000000
v 0.232479 0.096001 0.226840
v -0.570165 0.259982 0.000939
v -1.236022 0.096001 0.000000
v -0.232479 0.096001 0.226840
v -0.231453 0.463693 0.002268
v -0.265391 0.362315 0.002234
v 0.000000 0.096001 0.297304
v 0.000000 0.209719 0.268877
v 0.235505 -0.277275 0.002302
v 0.266066 -0.168910 0.002251
v 0.000000 0.096001 0.297304
v 0.000000 -0.021194 0.272284
v 0.000000 -0.138389 -0.280490
v 0.180910 -0.611961 0.000989
v 0.000000 -1.835148 -0.000000
v 0.000000 0.323438 -0.272760
v -0.174831 0.733458 0.000972
v 0.000000 1.835148 0.000000
v -0.232479 0.096001 -0.257322
v -1.236022 0.096001 0.000000
v -0.570165 0.259982 0.000939
v 0.232479 0.096001 -0.257322
v 1.236022 0.096001 0.000000
v 0.570165 -0.065387 0.000939
v 0.000000 0.323438 -0.272760
v 0.000000 1.835148 0.000000
v 0.174831 0.733458 0.000972
v -0.232479 0.096001 0.226840
v -1.236022 0.096001 0.000000
v -0.570165 -0.065387 0.000939
v 0.000000 -0.138389 0.247264
v -0.180910 -0.611961 0.000989
v 0.000000 -1.835148 -0.000000
v 0.232479 0.096001 -0.257322
v 0.570165 0.259982 0.000939
v 1.236022 0.096001 0.000000
v 0.361289 0.320653 0.002200
v 0.265391 0.362315 0.002234
v 0.000000 0.096001 0.297304
v 0.116239 0.096001 0.262072
v -0.235505 -0.277275 0.002302
v -0.266066 -0.168910 0.002251
v 0.000000 0.096001 -0.334847
v 0.000000 -0.021194 -0.307669
v 0.000000 -1.835148 -0.000000
v -0.180910 -0.611961 0.000989
v 0.000000 -0.138389 -0.280490
v 1.236022 0.096001 0.000000
v 0.570165 0.259982 0.000939
v 0.232479 0.096001 0.226840
v 0.116239 0.096001 -0.296084
v 0.361289 0.320653 0.002200
v 0.000000 -0.021194 0.272284
v -0.235505 -0.277275 0.002302
v -0.116239 0.096001 0.262072
v -0.361289 -0.126057 0.002200
v 0.000000 0.209719 -0.303803
v 0.231453 0.463693 0.002268
v 0.116239 0.096001 -0.296084
v 0.361289 -0.126057 0.002200
v -0.116239 0.096001 -0.296084
v -0.361289 0.320653 0.002200
v 0.000000 0.209719 -0.303803
v -0.231453 0.463693 0.002268
v 0.000000 -0.021194 -0.307669
v 0.235505 -0.277275 0.002302
v 0.000000 -1.835148 -0.000000
v 0.180910 -0.611961 0.000989
v 0.000000 -0.138389 0.247264
v 0.000000 1.835148 0.000000
v -0.174831 0.733458 0.000972
v 0.000000 0.323438 0.240449
v -0.361289 0.320653 0.002200
v -0.116239 0.096001 0.262072
v 0.361289 -0.126057 0.002200
v 0.116239 0.096001 0.262072
v 0.231453 0.463693 0.002268
v 0.000000 0.209719 0.268877
v -0.361289 -0.126057 0.002200
v -0.116239 0.096001 -0.296084
v -0.266066 -0.168910 0.002251
v 0.000000 0.096001 -0.334847
v 0.265391 0.362315 0.002234
v 0.000000 0.096001 0.297304
v 0.266066 -0.168910 0.002251
v 0.000000 0.096001 0.297304
v -0.265391 0.362315 0.002234
v 0.000000 0.096001 0.297304
v 0.000000 0.096001 -0.334847
v 0.266066 -0.168910 0.002251
v 0.000000 0.096001 -0.334847
v -0.265391 0.362315 0.002234
v 0.000000 0.096001 -0.334847
v -0.265391 0.362315 0.002234
v 0.000000 0.096001 -0.334847
v 0.266066 -0.168910 0.002251
v 0.000000 0.096001 -0.334847
v 0.265391 0.362315 0.002234
v 0.000000 0.096001 0.297304
v -0.266066 -0.168910 0.002251
v 0.000000 0.096001 0.297304
v -0.266066 -0.168910 0.002251
v 0.000000 0.096001 -0.334847
v 0.265391 0.362315 0.002234
vt 0.523511 0.125000
vt 0.625000 0.125000
vt 0.523511 0.226489
vt 0.517422 0.625000
vt 0.625000 0.625000
vt 0.517422 0.732578
vt 0.273511 0.625000
vt 0.375000 0.625000
vt 0.375000 0.726489
vt 0.773511 0.625000
vt 0.875000 0.625000
vt 0.773511 0.726489
vt 0.741289 0.625000
vt 0.750000 0.625000
vt 0.625000 0.750000
vt 0.625000 0.741289
vt 0.242814 0.625000
vt 0.250000 0.625000
vt 0.125000 0.750000
vt 0.125000 0.742814
vt 0.235627 0.514373
vt 0.235627 0.625000
vt 0.125000 0.625000
vt 0.732578 0.517422
vt 0.732578 0.625000
vt 0.625000 0.625000
vt 0.875000 0.523511
vt 0.875000 0.625000
vt 0.773511 0.625000
vt 0.375000 0.523511
vt 0.375000 0.625000
vt 0.273511 0.625000
vt 0.625000 0.517422
vt 0.625000 0.625000
vt 0.517422 0.625000
vt 0.625000 0.023511
vt 0.625000 0.125000
vt 0.523511 0.125000
vt 0.375000 0.014373
vt 0.485627 0.125000
vt 0.375000 0.125000
vt 0.476489 0.523511
vt 0.476489 0.625000
vt 0.375000 0.625000
vt 0.488245 0.625000
vt 0.500000 0.625000
vt 0.375000 0.750000
vt 0.375000 0.738245
vt 0.492814 0.125000
vt 0.500000 0.125000
vt 0.375000 0.250000
vt 0.375000 0.242814
vt 0.375000 0.125000
vt 0.485627 0.125000
vt 0.375000 0.235627
vt 0.375000 0.625000
vt 0.476489 0.625000
vt 0.375000 0.726489
vt 0.488245 0.511755
vt 0.488245 0.625000
vt 0.375000 0.007186
vt 0.492814 0.125000
vt 0.625000 0.011755
vt 0.511755 0.125000
vt 0.625000 0.508711
vt 0.508711 0.625000
vt 0.375000 0.511755
vt 0.261755 0.625000
vt 0.875000 0.511755
vt 0.761755 0.625000
vt 0.741289 0.508711
vt 0.741289 0.625000
vt 0.242814 0.507186
vt 0.242814 0.625000
vt 0.125000 0.625000
vt 0.235627 0.625000
vt 0.125000 0.735627
vt 0.625000 0.625000
vt 0.732578 0.625000
vt 0.625000 0.732578
vt 0.761755 0.625000
vt 0.761755 0.738245
vt 0.261755 0.625000
vt 0.375000 0.738245
vt 0.508711 0.625000
vt 0.508711 0.741289
vt 0.511755 0.125000
vt 0.511755 0.238245
vt 0.500000 0.125000
vt 0.500000 0.250000
vt 0.500000 0.625000
vt 0.500000 0.750000
vt 0.250000 0.625000
vt 0.375000 0.750000
vt 0.750000 0.625000
vt 0.750000 0.750000
vt 0.250000 0.500000
vt 0.250000 0.625000
vt 0.750000 0.500000
vt 0.750000 0.625000
vt 0.875000 0.500000
vt 0.750000 0.625000
vt 0.375000 0.500000
vt 0.250000 0.625000
vt 0.625000 0.500000
vt 0.500000 0.625000
vt 0.625000 0.000000
vt 0.500000 0.125000
vt 0.375000 0.000000
vt 0.500000 0.125000
vt 0.500000 0.500000
vt 0.500000 0.625000
vn -0.1833 -0.7097 -0.6802
vn -0.1730 -0.7176 -0.6746
vn -0.2027 -0.6943 -0.6905
vn 0.6922 0.1222 0.7113
vn 0.7015 0.1119 0.7038
vn 0.6680 0.1479 0.7293
vn 0.1743 -0.6613 0.7296
vn 0.1636 -0.6706 0.7236
vn 0.1960 -0.6418 0.7414
vn -0.1751 0.6559 0.7343
vn -0.1647 0.6647 0.7287
vn -0.1958 0.6377 0.7450
vn -0.6522 0.1707 0.7386
vn -0.6354 0.1987 0.7462
vn -0.6420 0.1879 0.7433
vn 0.6704 -0.1406 0.7286
vn 0.6538 -0.1702 0.7373
vn 0.6604 -0.1585 0.7340
vn 0.7326 -0.1240 -0.6693
vn 0.7398 -0.1132 -0.6632
vn 0.7424 -0.1093 -0.6610
vn -0.7198 0.1517 -0.6774
vn -0.7391 0.1282 -0.6612
vn -0.7472 0.1180 -0.6540
vn -0.2027 0.6904 -0.6944
vn -0.1744 0.7120 -0.6801
vn -0.1843 0.7046 -0.6852
vn 0.2027 -0.6943 -0.6905
vn 0.1730 -0.7176 -0.6746
vn 0.1833 -0.7097 -0.6802
vn 0.7198 0.1517 -0.6774
vn 0.7472 0.1180 -0.6540
vn 0.7391 0.1282 -0.6612
vn -0.1960 -0.6418 0.7414
vn -0.1636 -0.6706 0.7236
vn -0.1743 -0.6613 0.7296
vn -0.6817 -0.1212 0.7215
vn -0.6925 -0.1080 0.7133
vn -0.6961 -0.1035 0.7104
vn 0.2027 0.6904 -0.6944
vn 0.1843 0.7046 -0.6852
vn 0.1744 0.7120 -0.6801
vn 0.2184 0.6214 0.7525
vn 0.2447 0.6034 0.7589
vn 0.2346 0.6104 0.7565
vn -0.7210 -0.1455 -0.6775
vn -0.7030 -0.1784 -0.6885
vn -0.7104 -0.1650 -0.6841
vn -0.7424 -0.1093 -0.6610
vn -0.7398 -0.1132 -0.6632
vn -0.7326 -0.1240 -0.6693
vn 0.1647 0.6647 0.7287
vn 0.1751 0.6559 0.7343
vn 0.1958 0.6377 0.7450
vn 0.2464 0.6611 -0.7087
vn 0.2280 0.6733 -0.7033
vn -0.6604 -0.1585 0.7340
vn -0.6704 -0.1406 0.7286
vn -0.2378 -0.6109 0.7552
vn -0.2202 -0.6235 0.7502
vn 0.6924 0.1964 -0.6942
vn 0.7036 0.1773 -0.6882
vn 0.2497 -0.6615 -0.7072
vn 0.2299 -0.6753 -0.7008
vn -0.2464 0.6611 -0.7087
vn -0.2280 0.6733 -0.7033
vn -0.6924 0.1964 -0.6942
vn -0.7036 0.1773 -0.6882
vn 0.7104 -0.1650 -0.6841
vn 0.7210 -0.1455 -0.6775
vn 0.6961 -0.1035 0.7104
vn 0.6925 -0.1080 0.7133
vn 0.6817 -0.1212 0.7215
vn -0.7015 0.1119 0.7038
vn -0.6922 0.1222 0.7113
vn -0.6680 0.1479 0.7293
vn -0.2184 0.6214 0.7525
vn -0.2346 0.6104 0.7565
vn 0.2202 -0.6235 0.7502
vn 0.2378 -0.6109 0.7552
vn 0.6522 0.1707 0.7386
vn 0.6420 0.1879 0.7433
vn -0.2299 -0.6753 -0.7008
vn -0.2497 -0.6615 -0.7072
vn -0.2624 -0.6524 -0.7110
vn 0.6354 0.1987 0.7462
vn 0.2487 -0.6029 0.7581
vn -0.2447 0.6034 0.7589
vn 0.7030 -0.1784 -0.6885
vn -0.6849 0.2089 -0.6981
vn -0.2582 0.6530 -0.7120
vn 0.2624 -0.6524 -0.7110
vn 0.6849 0.2089 -0.6981
vn -0.2487 -0.6029 0.7581
vn -0.6538 -0.1702 0.7373
vn 0.2582 0.6530 -0.7120
usemtl None
s 1
f 1/1/1 2/2/2 3/3/3
f 4/4/4 5/5/5 6/6/6
f 7/7/7 8/8/8 9/9/9
f 10/10/10 11/11/11 12/12/12
f 13/13/13 14/14/14 15/15/14 16/16/15
f 17/17/16 18/18/17 19/19/17 20/20/18
f 21/21/19 22/22/20 23/23/21
f 24/24/22 25/25/23 26/26/24
f 27/27/25 28/28/26 29/29/27
f 30/30/28 31/31/29 32/32/30
f 33/33/31 34/34/32 35/35/33
f 36/36/34 37/37/35 38/38/36
f 39/39/37 40/40/38 41/41/39
f 42/42/40 43/43/41 44/44/42
f 45/45/43 46/46/44 47/47/44 48/48/45
f 49/49/46 50/50/47 51/51/47 52/52/48
f 53/53/49 54/54/50 55/55/51
f 56/56/52 57/57/53 58/58/54
f 59/59/55 60/60/56 43/43/41 42/42/40
f 61/61/57 62/62/58 40/40/38 39/39/37
f 63/63/59 36/36/34 38/38/36 64/64/60
f 65/65/61 33/33/31 35/35/33 66/66/62
f 67/67/63 30/30/28 32/32/30 68/68/64
f 69/69/65 27/27/25 29/29/27 70/70/66
f 71/71/67 72/72/68 25/25/23 24/24/22
f 73/73/69 74/74/70 22/22/20 21/21/19
f 75/75/71 76/76/72 77/77/73
f 78/78/74 79/79/75 80/80/76
f 81/81/77 10/10/10 12/12/12 82/82/78
f 83/83/79 7/7/7 9/9/9 84/84/80
f 85/85/81 4/4/4 6/6/6 86/86/82
f 87/87/83 1/1/1 3/3/3 88/88/84
f 89/89/85 87/87/83 88/88/84 90/90/85
f 91/91/86 85/85/81 86/86/82 92/92/86
f 93/93/87 83/83/79 84/84/80 94/94/87
f 95/95/88 81/81/77 82/82/78 96/96/88
f 97/97/89 98/98/89 74/74/70 73/73/69
f 99/99/90 100/100/90 72/72/68 71/71/67
f 101/101/91 69/69/65 70/70/66 102/102/91
f 103/103/92 67/67/63 68/68/64 104/104/92
f 105/105/93 65/65/61 66/66/62 106/106/93
f 107/107/94 63/63/59 64/64/60 108/108/94
f 109/109/95 110/110/95 62/62/58 61/61/57
f 111/111/96 112/112/96 60/60/56 59/59/55
f 54/54/50 49/49/46 52/52/48 55/55/51
f 57/57/53 45/45/43 48/48/45 58/58/54
f 76/76/72 17/17/16 20/20/18 77/77/73
f 79/79/75 13/13/13 16/16/15 80/80/76
