%YAML 1.1
%TAG !u! tag:unity3d.com,2011:
--- !u!1045 &1
EditorBuildSettings:
  m_ObjectHideFlags: 0
  serializedVersion: 2
  m_Scenes:
  - enabled: 0
    path: 
    guid: 00000000000000000000000000000000
  - enabled: 1
    path: Assets/_Game/_Scenes/TitleScene.unity
    guid: 1fd7e26a723958e4f838443edc5ceb45
  - enabled: 1
    path: Assets/_Game/_Scenes/MainMenuBlockout.unity
    guid: 033a52186fa792344ae93ac9ee8bce6c
  - enabled: 1
    path: Assets/_Game/_Scenes/__MAGIC SCHOOL/Level1R.unity
    guid: 685193adc44c4714bba77cbc64a56b8b
  - enabled: 1
    path: Assets/_Game/_Scenes/__MAGIC SCHOOL/Level2R.unity
    guid: e87a19e557dd29646ab4d47cd31d31ea
  - enabled: 1
    path: Assets/_Game/_Scenes/_TEA REALM/TEA1.unity
    guid: e34c5fcea675bcc499cf7f581b1f4b36
  - enabled: 1
    path: Assets/_Game/_Scenes/PrizeRoom.unity
    guid: 8b00f5e265bdee14f88f5c2ff3c966a6
  - enabled: 1
    path: Assets/_Game/_Scenes/_SPOOKY REALM/SpookyLevel.unity
    guid: db9975c38320bb54c86bf14fa845632f
  m_configObjects:
    com.unity.xr.management.loader_settings: {fileID: 11400000, guid: d87cc2cade654ac4d9c71d2e9be01940,
      type: 2}
