%YAML 1.1
%TAG !u! tag:unity3d.com,2011:
--- !u!1001 &1165198966790396959
PrefabInstance:
  m_ObjectHideFlags: 0
  serializedVersion: 2
  m_Modification:
    m_TransformParent: {fileID: 0}
    m_Modifications:
    - target: {fileID: 1027611004455100078, guid: 59a61fcae45daf74db184d7adda32190,
        type: 3}
      propertyPath: looping
      value: 0
      objectReference: {fileID: 0}
    - target: {fileID: 1027611004455100078, guid: 59a61fcae45daf74db184d7adda32190,
        type: 3}
      propertyPath: InitialModule.startSpeed.scalar
      value: 2.5
      objectReference: {fileID: 0}
    - target: {fileID: 1027611004455100078, guid: 59a61fcae45daf74db184d7adda32190,
        type: 3}
      propertyPath: lengthInSec
      value: 0.1
      objectReference: {fileID: 0}
    - target: {fileID: 1027611004455100078, guid: 59a61fcae45daf74db184d7adda32190,
        type: 3}
      propertyPath: EmissionModule.rateOverTime.scalar
      value: 40
      objectReference: {fileID: 0}
    - target: {fileID: 1027611004455100078, guid: 59a61fcae45daf74db184d7adda32190,
        type: 3}
      propertyPath: ShapeModule.angle
      value: 45.4
      objectReference: {fileID: 0}
    - target: {fileID: 1027611004455100078, guid: 59a61fcae45daf74db184d7adda32190,
        type: 3}
      propertyPath: ShapeModule.m_Scale.z
      value: 1.6
      objectReference: {fileID: 0}
    - target: {fileID: 1027611004455100078, guid: 59a61fcae45daf74db184d7adda32190,
        type: 3}
      propertyPath: InitialModule.startSize.scalar
      value: 0.23
      objectReference: {fileID: 0}
    - target: {fileID: 1027611004455100078, guid: 59a61fcae45daf74db184d7adda32190,
        type: 3}
      propertyPath: VelocityModule.enabled
      value: 1
      objectReference: {fileID: 0}
    - target: {fileID: 1027611004455100078, guid: 59a61fcae45daf74db184d7adda32190,
        type: 3}
      propertyPath: InitialModule.startLifetime.scalar
      value: 0.5
      objectReference: {fileID: 0}
    - target: {fileID: 1027611004455100078, guid: 59a61fcae45daf74db184d7adda32190,
        type: 3}
      propertyPath: VelocityModule.speedModifier.scalar
      value: 3
      objectReference: {fileID: 0}
    - target: {fileID: 1027611004455100078, guid: 59a61fcae45daf74db184d7adda32190,
        type: 3}
      propertyPath: ShapeModule.radius.value
      value: 3.16
      objectReference: {fileID: 0}
    - target: {fileID: 1027611004455100078, guid: 59a61fcae45daf74db184d7adda32190,
        type: 3}
      propertyPath: InitialModule.gravityModifier.scalar
      value: 1.5
      objectReference: {fileID: 0}
    - target: {fileID: 1496838654930978427, guid: 59a61fcae45daf74db184d7adda32190,
        type: 3}
      propertyPath: m_Name
      value: sparkles_tiny
      objectReference: {fileID: 0}
    - target: {fileID: 5148369969235092943, guid: 59a61fcae45daf74db184d7adda32190,
        type: 3}
      propertyPath: m_LocalPosition.x
      value: -48.5
      objectReference: {fileID: 0}
    - target: {fileID: 5148369969235092943, guid: 59a61fcae45daf74db184d7adda32190,
        type: 3}
      propertyPath: m_LocalPosition.y
      value: 3.7
      objectReference: {fileID: 0}
    - target: {fileID: 5148369969235092943, guid: 59a61fcae45daf74db184d7adda32190,
        type: 3}
      propertyPath: m_LocalPosition.z
      value: -11.6
      objectReference: {fileID: 0}
    - target: {fileID: 5148369969235092943, guid: 59a61fcae45daf74db184d7adda32190,
        type: 3}
      propertyPath: m_LocalRotation.x
      value: 0
      objectReference: {fileID: 0}
    - target: {fileID: 5148369969235092943, guid: 59a61fcae45daf74db184d7adda32190,
        type: 3}
      propertyPath: m_LocalRotation.y
      value: 0
      objectReference: {fileID: 0}
    - target: {fileID: 5148369969235092943, guid: 59a61fcae45daf74db184d7adda32190,
        type: 3}
      propertyPath: m_LocalRotation.z
      value: 0
      objectReference: {fileID: 0}
    - target: {fileID: 5148369969235092943, guid: 59a61fcae45daf74db184d7adda32190,
        type: 3}
      propertyPath: m_LocalRotation.w
      value: 1
      objectReference: {fileID: 0}
    - target: {fileID: 5148369969235092943, guid: 59a61fcae45daf74db184d7adda32190,
        type: 3}
      propertyPath: m_RootOrder
      value: 0
      objectReference: {fileID: 0}
    - target: {fileID: 5148369969235092943, guid: 59a61fcae45daf74db184d7adda32190,
        type: 3}
      propertyPath: m_LocalEulerAnglesHint.x
      value: -90
      objectReference: {fileID: 0}
    - target: {fileID: 5148369969235092943, guid: 59a61fcae45daf74db184d7adda32190,
        type: 3}
      propertyPath: m_LocalEulerAnglesHint.y
      value: 0
      objectReference: {fileID: 0}
    - target: {fileID: 5148369969235092943, guid: 59a61fcae45daf74db184d7adda32190,
        type: 3}
      propertyPath: m_LocalEulerAnglesHint.z
      value: 0
      objectReference: {fileID: 0}
    m_RemovedComponents: []
  m_SourcePrefab: {fileID: 100100000, guid: 59a61fcae45daf74db184d7adda32190, type: 3}
