%YAML 1.1
%TAG !u! tag:unity3d.com,2011:
--- !u!114 &8804222460578990371
MonoBehaviour:
  m_ObjectHideFlags: 0
  m_CorrespondingSourceObject: {fileID: 0}
  m_PrefabInstance: {fileID: 0}
  m_PrefabAsset: {fileID: 0}
  m_GameObject: {fileID: 3027935887035559416}
  m_Enabled: 1
  m_EditorHideFlags: 0
  m_Script: {fileID: 11500000, guid: b6ed9ea32efd6c14f8e6c4935538b91c, type: 3}
  m_Name: 
  m_EditorClassIdentifier: 
  destroyDelay: 0.5
--- !u!1001 &4521813548524202883
PrefabInstance:
  m_ObjectHideFlags: 0
  serializedVersion: 2
  m_Modification:
    m_TransformParent: {fileID: 0}
    m_Modifications:
    - target: {fileID: 1027611004455100078, guid: 59a61fcae45daf74db184d7adda32190,
        type: 3}
      propertyPath: looping
      value: 0
      objectReference: {fileID: 0}
    - target: {fileID: 1027611004455100078, guid: 59a61fcae45daf74db184d7adda32190,
        type: 3}
      propertyPath: InitialModule.startSpeed.scalar
      value: 2.5
      objectReference: {fileID: 0}
    - target: {fileID: 1027611004455100078, guid: 59a61fcae45daf74db184d7adda32190,
        type: 3}
      propertyPath: lengthInSec
      value: 0.1
      objectReference: {fileID: 0}
    - target: {fileID: 1027611004455100078, guid: 59a61fcae45daf74db184d7adda32190,
        type: 3}
      propertyPath: EmissionModule.rateOverTime.scalar
      value: 100
      objectReference: {fileID: 0}
    - target: {fileID: 1027611004455100078, guid: 59a61fcae45daf74db184d7adda32190,
        type: 3}
      propertyPath: ShapeModule.angle
      value: 45.4
      objectReference: {fileID: 0}
    - target: {fileID: 1027611004455100078, guid: 59a61fcae45daf74db184d7adda32190,
        type: 3}
      propertyPath: ShapeModule.m_Scale.z
      value: 1.6
      objectReference: {fileID: 0}
    - target: {fileID: 1027611004455100078, guid: 59a61fcae45daf74db184d7adda32190,
        type: 3}
      propertyPath: InitialModule.startSize.scalar
      value: 0.3
      objectReference: {fileID: 0}
    - target: {fileID: 1027611004455100078, guid: 59a61fcae45daf74db184d7adda32190,
        type: 3}
      propertyPath: VelocityModule.enabled
      value: 1
      objectReference: {fileID: 0}
    - target: {fileID: 1027611004455100078, guid: 59a61fcae45daf74db184d7adda32190,
        type: 3}
      propertyPath: InitialModule.startLifetime.scalar
      value: 0.5
      objectReference: {fileID: 0}
    - target: {fileID: 1027611004455100078, guid: 59a61fcae45daf74db184d7adda32190,
        type: 3}
      propertyPath: VelocityModule.speedModifier.scalar
      value: 10
      objectReference: {fileID: 0}
    - target: {fileID: 1027611004455100078, guid: 59a61fcae45daf74db184d7adda32190,
        type: 3}
      propertyPath: ShapeModule.radius.value
      value: 3.16
      objectReference: {fileID: 0}
    - target: {fileID: 1027611004455100078, guid: 59a61fcae45daf74db184d7adda32190,
        type: 3}
      propertyPath: InitialModule.gravityModifier.scalar
      value: 1.5
      objectReference: {fileID: 0}
    - target: {fileID: 1496838654930978427, guid: 59a61fcae45daf74db184d7adda32190,
        type: 3}
      propertyPath: m_Name
      value: sparkles_door spawn
      objectReference: {fileID: 0}
    - target: {fileID: 5148369969235092943, guid: 59a61fcae45daf74db184d7adda32190,
        type: 3}
      propertyPath: m_LocalPosition.x
      value: 0
      objectReference: {fileID: 0}
    - target: {fileID: 5148369969235092943, guid: 59a61fcae45daf74db184d7adda32190,
        type: 3}
      propertyPath: m_LocalPosition.y
      value: 0
      objectReference: {fileID: 0}
    - target: {fileID: 5148369969235092943, guid: 59a61fcae45daf74db184d7adda32190,
        type: 3}
      propertyPath: m_LocalPosition.z
      value: 0
      objectReference: {fileID: 0}
    - target: {fileID: 5148369969235092943, guid: 59a61fcae45daf74db184d7adda32190,
        type: 3}
      propertyPath: m_LocalRotation.x
      value: 0
      objectReference: {fileID: 0}
    - target: {fileID: 5148369969235092943, guid: 59a61fcae45daf74db184d7adda32190,
        type: 3}
      propertyPath: m_LocalRotation.y
      value: 0
      objectReference: {fileID: 0}
    - target: {fileID: 5148369969235092943, guid: 59a61fcae45daf74db184d7adda32190,
        type: 3}
      propertyPath: m_LocalRotation.z
      value: 0
      objectReference: {fileID: 0}
    - target: {fileID: 5148369969235092943, guid: 59a61fcae45daf74db184d7adda32190,
        type: 3}
      propertyPath: m_LocalRotation.w
      value: 1
      objectReference: {fileID: 0}
    - target: {fileID: 5148369969235092943, guid: 59a61fcae45daf74db184d7adda32190,
        type: 3}
      propertyPath: m_RootOrder
      value: 0
      objectReference: {fileID: 0}
    - target: {fileID: 5148369969235092943, guid: 59a61fcae45daf74db184d7adda32190,
        type: 3}
      propertyPath: m_LocalEulerAnglesHint.x
      value: -90
      objectReference: {fileID: 0}
    - target: {fileID: 5148369969235092943, guid: 59a61fcae45daf74db184d7adda32190,
        type: 3}
      propertyPath: m_LocalEulerAnglesHint.y
      value: 0
      objectReference: {fileID: 0}
    - target: {fileID: 5148369969235092943, guid: 59a61fcae45daf74db184d7adda32190,
        type: 3}
      propertyPath: m_LocalEulerAnglesHint.z
      value: 0
      objectReference: {fileID: 0}
    m_RemovedComponents: []
  m_SourcePrefab: {fileID: 100100000, guid: 59a61fcae45daf74db184d7adda32190, type: 3}
--- !u!1 &3027935887035559416 stripped
GameObject:
  m_CorrespondingSourceObject: {fileID: 1496838654930978427, guid: 59a61fcae45daf74db184d7adda32190,
    type: 3}
  m_PrefabInstance: {fileID: 4521813548524202883}
  m_PrefabAsset: {fileID: 0}
