%YAML 1.1
%TAG !u! tag:unity3d.com,2011:
--- !u!1001 &2633465209746846027
PrefabInstance:
  m_ObjectHideFlags: 0
  serializedVersion: 2
  m_Modification:
    m_TransformParent: {fileID: 0}
    m_Modifications:
    - target: {fileID: 2323343882018923733, guid: 8352b390875100446bf0ea36f9ef3867,
        type: 3}
      propertyPath: m_Name
      value: sparkles_gate ambience
      objectReference: {fileID: 0}
    - target: {fileID: 4231471476940258304, guid: 8352b390875100446bf0ea36f9ef3867,
        type: 3}
      propertyPath: EmissionModule.m_Bursts.Array.size
      value: 0
      objectReference: {fileID: 0}
    - target: {fileID: 4231471476940258304, guid: 8352b390875100446bf0ea36f9ef3867,
        type: 3}
      propertyPath: EmissionModule.m_Bursts.Array.data[0].countCurve.maxCurve.m_Curve.Array.size
      value: 2
      objectReference: {fileID: 0}
    - target: {fileID: 4231471476940258304, guid: 8352b390875100446bf0ea36f9ef3867,
        type: 3}
      propertyPath: EmissionModule.m_Bursts.Array.data[0].countCurve.minCurve.m_Curve.Array.size
      value: 2
      objectReference: {fileID: 0}
    - target: {fileID: 4231471476940258304, guid: 8352b390875100446bf0ea36f9ef3867,
        type: 3}
      propertyPath: looping
      value: 1
      objectReference: {fileID: 0}
    - target: {fileID: 4231471476940258304, guid: 8352b390875100446bf0ea36f9ef3867,
        type: 3}
      propertyPath: InitialModule.startSpeed.scalar
      value: 0.4
      objectReference: {fileID: 0}
    - target: {fileID: 4231471476940258304, guid: 8352b390875100446bf0ea36f9ef3867,
        type: 3}
      propertyPath: InitialModule.startLifetime.scalar
      value: 10
      objectReference: {fileID: 0}
    - target: {fileID: 4231471476940258304, guid: 8352b390875100446bf0ea36f9ef3867,
        type: 3}
      propertyPath: InitialModule.startSize.minScalar
      value: 0.1
      objectReference: {fileID: 0}
    - target: {fileID: 4231471476940258304, guid: 8352b390875100446bf0ea36f9ef3867,
        type: 3}
      propertyPath: VelocityModule.speedModifier.scalar
      value: 1
      objectReference: {fileID: 0}
    - target: {fileID: 4231471476940258304, guid: 8352b390875100446bf0ea36f9ef3867,
        type: 3}
      propertyPath: EmissionModule.rateOverTime.scalar
      value: 7
      objectReference: {fileID: 0}
    - target: {fileID: 4231471476940258304, guid: 8352b390875100446bf0ea36f9ef3867,
        type: 3}
      propertyPath: InitialModule.startSize.scalar
      value: 0.53
      objectReference: {fileID: 0}
    - target: {fileID: 4231471476940258304, guid: 8352b390875100446bf0ea36f9ef3867,
        type: 3}
      propertyPath: prewarm
      value: 1
      objectReference: {fileID: 0}
    - target: {fileID: 4231471476940258304, guid: 8352b390875100446bf0ea36f9ef3867,
        type: 3}
      propertyPath: EmissionModule.m_BurstCount
      value: 0
      objectReference: {fileID: 0}
    - target: {fileID: 4231471476940258304, guid: 8352b390875100446bf0ea36f9ef3867,
        type: 3}
      propertyPath: EmissionModule.m_Bursts.Array.data[0].countCurve.scalar
      value: 6
      objectReference: {fileID: 0}
    - target: {fileID: 4231471476940258304, guid: 8352b390875100446bf0ea36f9ef3867,
        type: 3}
      propertyPath: EmissionModule.m_Bursts.Array.data[0].countCurve.minScalar
      value: 30
      objectReference: {fileID: 0}
    - target: {fileID: 4231471476940258304, guid: 8352b390875100446bf0ea36f9ef3867,
        type: 3}
      propertyPath: EmissionModule.m_Bursts.Array.data[0].countCurve.maxCurve.m_Curve.Array.data[0].value
      value: 1
      objectReference: {fileID: 0}
    - target: {fileID: 4231471476940258304, guid: 8352b390875100446bf0ea36f9ef3867,
        type: 3}
      propertyPath: EmissionModule.m_Bursts.Array.data[0].countCurve.maxCurve.m_Curve.Array.data[1].time
      value: 1
      objectReference: {fileID: 0}
    - target: {fileID: 4231471476940258304, guid: 8352b390875100446bf0ea36f9ef3867,
        type: 3}
      propertyPath: EmissionModule.m_Bursts.Array.data[0].countCurve.maxCurve.m_Curve.Array.data[1].value
      value: 1
      objectReference: {fileID: 0}
    - target: {fileID: 4231471476940258304, guid: 8352b390875100446bf0ea36f9ef3867,
        type: 3}
      propertyPath: EmissionModule.m_Bursts.Array.data[0].countCurve.maxCurve.m_PreInfinity
      value: 2
      objectReference: {fileID: 0}
    - target: {fileID: 4231471476940258304, guid: 8352b390875100446bf0ea36f9ef3867,
        type: 3}
      propertyPath: EmissionModule.m_Bursts.Array.data[0].countCurve.maxCurve.m_PostInfinity
      value: 2
      objectReference: {fileID: 0}
    - target: {fileID: 4231471476940258304, guid: 8352b390875100446bf0ea36f9ef3867,
        type: 3}
      propertyPath: EmissionModule.m_Bursts.Array.data[0].countCurve.maxCurve.m_RotationOrder
      value: 4
      objectReference: {fileID: 0}
    - target: {fileID: 4231471476940258304, guid: 8352b390875100446bf0ea36f9ef3867,
        type: 3}
      propertyPath: EmissionModule.m_Bursts.Array.data[0].countCurve.minCurve.m_Curve.Array.data[0].value
      value: 1
      objectReference: {fileID: 0}
    - target: {fileID: 4231471476940258304, guid: 8352b390875100446bf0ea36f9ef3867,
        type: 3}
      propertyPath: EmissionModule.m_Bursts.Array.data[0].countCurve.minCurve.m_Curve.Array.data[1].time
      value: 1
      objectReference: {fileID: 0}
    - target: {fileID: 4231471476940258304, guid: 8352b390875100446bf0ea36f9ef3867,
        type: 3}
      propertyPath: EmissionModule.m_Bursts.Array.data[0].countCurve.minCurve.m_Curve.Array.data[1].value
      value: 1
      objectReference: {fileID: 0}
    - target: {fileID: 4231471476940258304, guid: 8352b390875100446bf0ea36f9ef3867,
        type: 3}
      propertyPath: EmissionModule.m_Bursts.Array.data[0].countCurve.minCurve.m_PreInfinity
      value: 2
      objectReference: {fileID: 0}
    - target: {fileID: 4231471476940258304, guid: 8352b390875100446bf0ea36f9ef3867,
        type: 3}
      propertyPath: EmissionModule.m_Bursts.Array.data[0].countCurve.minCurve.m_PostInfinity
      value: 2
      objectReference: {fileID: 0}
    - target: {fileID: 4231471476940258304, guid: 8352b390875100446bf0ea36f9ef3867,
        type: 3}
      propertyPath: EmissionModule.m_Bursts.Array.data[0].countCurve.minCurve.m_RotationOrder
      value: 4
      objectReference: {fileID: 0}
    - target: {fileID: 4231471476940258304, guid: 8352b390875100446bf0ea36f9ef3867,
        type: 3}
      propertyPath: EmissionModule.m_Bursts.Array.data[0].cycleCount
      value: 0
      objectReference: {fileID: 0}
    - target: {fileID: 4231471476940258304, guid: 8352b390875100446bf0ea36f9ef3867,
        type: 3}
      propertyPath: EmissionModule.m_Bursts.Array.data[0].repeatInterval
      value: 0.01
      objectReference: {fileID: 0}
    - target: {fileID: 4231471476940258304, guid: 8352b390875100446bf0ea36f9ef3867,
        type: 3}
      propertyPath: EmissionModule.m_Bursts.Array.data[0].probability
      value: 0.1
      objectReference: {fileID: 0}
    - target: {fileID: 4231471476940258304, guid: 8352b390875100446bf0ea36f9ef3867,
        type: 3}
      propertyPath: EmissionModule.m_Bursts.Array.data[0].time
      value: 0
      objectReference: {fileID: 0}
    - target: {fileID: 4231471476940258304, guid: 8352b390875100446bf0ea36f9ef3867,
        type: 3}
      propertyPath: EmissionModule.m_Bursts.Array.data[0].countCurve.maxCurve.m_Curve.Array.data[0].inWeight
      value: 0
      objectReference: {fileID: 0}
    - target: {fileID: 4231471476940258304, guid: 8352b390875100446bf0ea36f9ef3867,
        type: 3}
      propertyPath: EmissionModule.m_Bursts.Array.data[0].countCurve.maxCurve.m_Curve.Array.data[0].outWeight
      value: 0
      objectReference: {fileID: 0}
    - target: {fileID: 4231471476940258304, guid: 8352b390875100446bf0ea36f9ef3867,
        type: 3}
      propertyPath: EmissionModule.m_Bursts.Array.data[0].countCurve.maxCurve.m_Curve.Array.data[1].inWeight
      value: 0
      objectReference: {fileID: 0}
    - target: {fileID: 4231471476940258304, guid: 8352b390875100446bf0ea36f9ef3867,
        type: 3}
      propertyPath: EmissionModule.m_Bursts.Array.data[0].countCurve.maxCurve.m_Curve.Array.data[1].outWeight
      value: 0
      objectReference: {fileID: 0}
    - target: {fileID: 4231471476940258304, guid: 8352b390875100446bf0ea36f9ef3867,
        type: 3}
      propertyPath: EmissionModule.m_Bursts.Array.data[0].countCurve.minCurve.m_Curve.Array.data[0].inWeight
      value: 0
      objectReference: {fileID: 0}
    - target: {fileID: 4231471476940258304, guid: 8352b390875100446bf0ea36f9ef3867,
        type: 3}
      propertyPath: EmissionModule.m_Bursts.Array.data[0].countCurve.minCurve.m_Curve.Array.data[0].outWeight
      value: 0
      objectReference: {fileID: 0}
    - target: {fileID: 4231471476940258304, guid: 8352b390875100446bf0ea36f9ef3867,
        type: 3}
      propertyPath: EmissionModule.m_Bursts.Array.data[0].countCurve.minCurve.m_Curve.Array.data[1].inWeight
      value: 0
      objectReference: {fileID: 0}
    - target: {fileID: 4231471476940258304, guid: 8352b390875100446bf0ea36f9ef3867,
        type: 3}
      propertyPath: EmissionModule.m_Bursts.Array.data[0].countCurve.minCurve.m_Curve.Array.data[1].outWeight
      value: 0
      objectReference: {fileID: 0}
    - target: {fileID: 4231471476940258304, guid: 8352b390875100446bf0ea36f9ef3867,
        type: 3}
      propertyPath: EmissionModule.m_Bursts.Array.data[0].countCurve.minMaxState
      value: 0
      objectReference: {fileID: 0}
    - target: {fileID: 4231471476940258304, guid: 8352b390875100446bf0ea36f9ef3867,
        type: 3}
      propertyPath: ShapeModule.radius.value
      value: 2.93
      objectReference: {fileID: 0}
    - target: {fileID: 4231471476940258304, guid: 8352b390875100446bf0ea36f9ef3867,
        type: 3}
      propertyPath: ShapeModule.radiusThickness
      value: 1
      objectReference: {fileID: 0}
    - target: {fileID: 8325278937930745697, guid: 8352b390875100446bf0ea36f9ef3867,
        type: 3}
      propertyPath: m_LocalPosition.x
      value: -65.67
      objectReference: {fileID: 0}
    - target: {fileID: 8325278937930745697, guid: 8352b390875100446bf0ea36f9ef3867,
        type: 3}
      propertyPath: m_LocalPosition.y
      value: 5.51
      objectReference: {fileID: 0}
    - target: {fileID: 8325278937930745697, guid: 8352b390875100446bf0ea36f9ef3867,
        type: 3}
      propertyPath: m_LocalPosition.z
      value: 2.97
      objectReference: {fileID: 0}
    - target: {fileID: 8325278937930745697, guid: 8352b390875100446bf0ea36f9ef3867,
        type: 3}
      propertyPath: m_LocalRotation.x
      value: 0.6532815
      objectReference: {fileID: 0}
    - target: {fileID: 8325278937930745697, guid: 8352b390875100446bf0ea36f9ef3867,
        type: 3}
      propertyPath: m_LocalRotation.y
      value: -0.27059805
      objectReference: {fileID: 0}
    - target: {fileID: 8325278937930745697, guid: 8352b390875100446bf0ea36f9ef3867,
        type: 3}
      propertyPath: m_LocalRotation.z
      value: 0.27059805
      objectReference: {fileID: 0}
    - target: {fileID: 8325278937930745697, guid: 8352b390875100446bf0ea36f9ef3867,
        type: 3}
      propertyPath: m_LocalRotation.w
      value: 0.6532815
      objectReference: {fileID: 0}
    - target: {fileID: 8325278937930745697, guid: 8352b390875100446bf0ea36f9ef3867,
        type: 3}
      propertyPath: m_RootOrder
      value: 0
      objectReference: {fileID: 0}
    - target: {fileID: 8325278937930745697, guid: 8352b390875100446bf0ea36f9ef3867,
        type: 3}
      propertyPath: m_LocalEulerAnglesHint.x
      value: 90
      objectReference: {fileID: 0}
    - target: {fileID: 8325278937930745697, guid: 8352b390875100446bf0ea36f9ef3867,
        type: 3}
      propertyPath: m_LocalEulerAnglesHint.y
      value: -45
      objectReference: {fileID: 0}
    - target: {fileID: 8325278937930745697, guid: 8352b390875100446bf0ea36f9ef3867,
        type: 3}
      propertyPath: m_LocalEulerAnglesHint.z
      value: 0
      objectReference: {fileID: 0}
    m_RemovedComponents:
    - {fileID: 8076553889650458638, guid: 8352b390875100446bf0ea36f9ef3867, type: 3}
  m_SourcePrefab: {fileID: 100100000, guid: 8352b390875100446bf0ea36f9ef3867, type: 3}
