# This file uses centimeters as units for non-parametric coordinates.

mtllib vfx cone obj.mtl
g default
v 0.951057 0.155853 -0.309017
v 0.809018 0.155853 -0.587786
v 0.587786 0.155853 -0.809017
v 0.309017 0.155853 -0.951057
v 0.000000 0.155853 -1.000000
v -0.309017 0.155853 -0.951057
v -0.587785 0.155853 -0.809017
v -0.809017 0.155853 -0.587785
v -0.951057 0.155853 -0.309017
v -1.000000 0.155853 0.000000
v -0.951057 0.155853 0.309017
v -0.809017 0.155853 0.587785
v -0.587785 0.155853 0.809017
v -0.309017 0.155853 0.951057
v -0.000000 0.155853 1.000000
v 0.309017 0.155853 0.951057
v 0.587785 0.155853 0.809017
v 0.809017 0.155853 0.587785
v 0.951057 0.155853 0.309017
v 1.000000 0.155853 0.000000
v 0.327077 4.278757 -0.106274
v 0.278228 4.278757 -0.202145
v 0.202145 4.278757 -0.278229
v 0.106274 4.278757 -0.327077
v -0.000000 4.278757 -0.343909
v -0.106274 4.278757 -0.327077
v -0.202145 4.278757 -0.278228
v -0.278228 4.278757 -0.202145
v -0.327077 4.278757 -0.106274
v -0.343909 4.278757 -0.000000
v -0.327077 4.278757 0.106273
v -0.278228 4.278757 0.202145
v -0.202145 4.278757 0.278228
v -0.106274 4.278757 0.327077
v -0.000000 4.278757 0.343909
v 0.106274 4.278757 0.327077
v 0.202144 4.278757 0.278228
v 0.278228 4.278757 0.202144
v 0.327077 4.278757 0.106273
v 0.343909 4.278757 -0.000000
vt 0.375000 0.312500
vt 0.387500 0.312500
vt 0.400000 0.312500
vt 0.412500 0.312500
vt 0.425000 0.312500
vt 0.437500 0.312500
vt 0.450000 0.312500
vt 0.462500 0.312500
vt 0.475000 0.312500
vt 0.487500 0.312500
vt 0.500000 0.312500
vt 0.512500 0.312500
vt 0.525000 0.312500
vt 0.537500 0.312500
vt 0.550000 0.312500
vt 0.562500 0.312500
vt 0.575000 0.312500
vt 0.587500 0.312500
vt 0.600000 0.312500
vt 0.612500 0.312500
vt 0.625000 0.312500
vt 0.375000 0.688440
vt 0.387500 0.688440
vt 0.400000 0.688440
vt 0.412500 0.688440
vt 0.425000 0.688440
vt 0.437500 0.688440
vt 0.450000 0.688440
vt 0.462500 0.688440
vt 0.475000 0.688440
vt 0.487500 0.688440
vt 0.500000 0.688440
vt 0.512500 0.688440
vt 0.525000 0.688440
vt 0.537500 0.688440
vt 0.550000 0.688440
vt 0.562500 0.688440
vt 0.575000 0.688440
vt 0.587500 0.688440
vt 0.600000 0.688440
vt 0.612500 0.688440
vt 0.625000 0.688440
vn 0.939239 0.157156 -0.305176
vn 0.798964 0.157156 -0.580481
vn 0.798964 0.157156 -0.580481
vn 0.939239 0.157156 -0.305176
vn 0.580481 0.157156 -0.798964
vn 0.580481 0.157156 -0.798964
vn 0.305177 0.157156 -0.939239
vn 0.305177 0.157156 -0.939239
vn 0.000000 0.157156 -0.987574
vn -0.000000 0.157156 -0.987574
vn -0.305177 0.157156 -0.939238
vn -0.305177 0.157156 -0.939238
vn -0.580482 0.157156 -0.798964
vn -0.580481 0.157156 -0.798964
vn -0.798964 0.157156 -0.580481
vn -0.798964 0.157156 -0.580481
vn -0.939238 0.157156 -0.305177
vn -0.939239 0.157156 -0.305177
vn -0.987574 0.157156 0.000000
vn -0.987574 0.157156 -0.000000
vn -0.939238 0.157156 0.305177
vn -0.939239 0.157156 0.305177
vn -0.798964 0.157156 0.580481
vn -0.798964 0.157156 0.580481
vn -0.580481 0.157156 0.798964
vn -0.580481 0.157156 0.798964
vn -0.305177 0.157156 0.939238
vn -0.305177 0.157156 0.939238
vn -0.000000 0.157156 0.987574
vn -0.000000 0.157156 0.987574
vn 0.305177 0.157156 0.939238
vn 0.305177 0.157156 0.939238
vn 0.580481 0.157156 0.798964
vn 0.580481 0.157156 0.798964
vn 0.798964 0.157156 0.580481
vn 0.798964 0.157156 0.580481
vn 0.939238 0.157156 0.305177
vn 0.939239 0.157156 0.305177
vn 0.987574 0.157156 0.000001
vn 0.987574 0.157156 0.000001
s 1
g pCylinder1
usemtl initialShadingGroup
f 1/1/1 2/2/2 22/23/3 21/22/4
f 2/2/2 3/3/5 23/24/6 22/23/3
f 3/3/5 4/4/7 24/25/8 23/24/6
f 4/4/7 5/5/9 25/26/10 24/25/8
f 5/5/9 6/6/11 26/27/12 25/26/10
f 6/6/11 7/7/13 27/28/14 26/27/12
f 7/7/13 8/8/15 28/29/16 27/28/14
f 8/8/15 9/9/17 29/30/18 28/29/16
f 9/9/17 10/10/19 30/31/20 29/30/18
f 10/10/19 11/11/21 31/32/22 30/31/20
f 11/11/21 12/12/23 32/33/24 31/32/22
f 12/12/23 13/13/25 33/34/26 32/33/24
f 13/13/25 14/14/27 34/35/28 33/34/26
f 14/14/27 15/15/29 35/36/30 34/35/28
f 15/15/29 16/16/31 36/37/32 35/36/30
f 16/16/31 17/17/33 37/38/34 36/37/32
f 17/17/33 18/18/35 38/39/36 37/38/34
f 18/18/35 19/19/37 39/40/38 38/39/36
f 19/19/37 20/20/39 40/41/40 39/40/38
f 20/20/39 1/21/1 21/42/4 40/41/40
