%YAML 1.1
%TAG !u! tag:unity3d.com,2011:
--- !u!1 &8964451850293958155
GameObject:
  m_ObjectHideFlags: 0
  m_CorrespondingSourceObject: {fileID: 0}
  m_PrefabInstance: {fileID: 0}
  m_PrefabAsset: {fileID: 0}
  serializedVersion: 6
  m_Component:
  - component: {fileID: 1933186524482311660}
  - component: {fileID: 7676444321609137576}
  - component: {fileID: 7915924565196400080}
  m_Layer: 0
  m_Name: capelet cloth
  m_TagString: Untagged
  m_Icon: {fileID: 0}
  m_NavMeshLayer: 0
  m_StaticEditorFlags: 0
  m_IsActive: 1
--- !u!4 &1933186524482311660
Transform:
  m_ObjectHideFlags: 0
  m_CorrespondingSourceObject: {fileID: 0}
  m_PrefabInstance: {fileID: 0}
  m_PrefabAsset: {fileID: 0}
  m_GameObject: {fileID: 8964451850293958155}
  m_LocalRotation: {x: 0, y: 0, z: 0, w: 1}
  m_LocalPosition: {x: 0.042, y: 1.479, z: -0.017146468}
  m_LocalScale: {x: 0.9935894, y: 0.9935894, z: 0.9935894}
  m_Children: []
  m_Father: {fileID: 0}
  m_RootOrder: 0
  m_LocalEulerAnglesHint: {x: 0, y: 0, z: 0}
--- !u!137 &7676444321609137576
SkinnedMeshRenderer:
  m_ObjectHideFlags: 0
  m_CorrespondingSourceObject: {fileID: 0}
  m_PrefabInstance: {fileID: 0}
  m_PrefabAsset: {fileID: 0}
  m_GameObject: {fileID: 8964451850293958155}
  m_Enabled: 1
  m_CastShadows: 1
  m_ReceiveShadows: 1
  m_DynamicOccludee: 1
  m_MotionVectors: 1
  m_LightProbeUsage: 1
  m_ReflectionProbeUsage: 1
  m_RayTracingMode: 0
  m_RenderingLayerMask: 1
  m_RendererPriority: 0
  m_Materials:
  - {fileID: 2100000, guid: db2f1ac7dc327404eab37ca728e8683b, type: 2}
  m_StaticBatchInfo:
    firstSubMesh: 0
    subMeshCount: 0
  m_StaticBatchRoot: {fileID: 0}
  m_ProbeAnchor: {fileID: 0}
  m_LightProbeVolumeOverride: {fileID: 0}
  m_ScaleInLightmap: 1
  m_ReceiveGI: 1
  m_PreserveUVs: 0
  m_IgnoreNormalsForChartDetection: 0
  m_ImportantGI: 0
  m_StitchLightmapSeams: 1
  m_SelectedEditorRenderState: 3
  m_MinimumChartSize: 4
  m_AutoUVMaxDistance: 0.5
  m_AutoUVMaxAngle: 89
  m_LightmapParameters: {fileID: 0}
  m_SortingLayerID: 0
  m_SortingLayer: 0
  m_SortingOrder: 0
  serializedVersion: 2
  m_Quality: 0
  m_UpdateWhenOffscreen: 0
  m_SkinnedMotionVectors: 1
  m_Mesh: {fileID: 6272454370964656836, guid: 7e1207350a67a804eafcc2df42e2218f, type: 3}
  m_Bones: []
  m_BlendShapeWeights: []
  m_RootBone: {fileID: 0}
  m_AABB:
    m_Center: {x: 0, y: 0.07152569, z: 0.12360692}
    m_Extent: {x: 0.9662932, y: 0.4320035, z: 0.7255951}
  m_DirtyAABB: 0
--- !u!183 &7915924565196400080
Cloth:
  m_ObjectHideFlags: 0
  m_CorrespondingSourceObject: {fileID: 0}
  m_PrefabInstance: {fileID: 0}
  m_PrefabAsset: {fileID: 0}
  m_GameObject: {fileID: 8964451850293958155}
  m_Enabled: 1
  m_StretchingStiffness: 1
  m_BendingStiffness: 0
  m_UseTethers: 1
  m_UseGravity: 1
  m_Damping: 0.8
  m_ExternalAcceleration: {x: 0, y: 0, z: 0}
  m_RandomAcceleration: {x: 0, y: 0, z: 0}
  m_WorldVelocityScale: 0.5
  m_WorldAccelerationScale: 1
  m_Friction: 0.5
  m_CollisionMassScale: 0
  m_UseContinuousCollision: 1
  m_UseVirtualParticles: 1
  m_SolverFrequency: 120
  m_SleepThreshold: 0.1
  m_Coefficients:
  - maxDistance: 5
    collisionSphereDistance: 3.4028235e+38
  - maxDistance: 0.2
    collisionSphereDistance: 0
  - maxDistance: 0.2
    collisionSphereDistance: 0
  - maxDistance: 0.2
    collisionSphereDistance: 0
  - maxDistance: 5
    collisionSphereDistance: 3.4028235e+38
  - maxDistance: 5
    collisionSphereDistance: 3.4028235e+38
  - maxDistance: 0
    collisionSphereDistance: 0
  - maxDistance: 0
    collisionSphereDistance: 0
  - maxDistance: 5
    collisionSphereDistance: 3.4028235e+38
  - maxDistance: 5
    collisionSphereDistance: 3.4028235e+38
  - maxDistance: 0
    collisionSphereDistance: 0
  - maxDistance: 0
    collisionSphereDistance: 0
  - maxDistance: 0.2
    collisionSphereDistance: 3.4028235e+38
  - maxDistance: 5
    collisionSphereDistance: 3.4028235e+38
  - maxDistance: 0
    collisionSphereDistance: 0
  - maxDistance: 0
    collisionSphereDistance: 0
  - maxDistance: 0.2
    collisionSphereDistance: 3.4028235e+38
  - maxDistance: 5
    collisionSphereDistance: 3.4028235e+38
  - maxDistance: 0
    collisionSphereDistance: 0
  - maxDistance: 0
    collisionSphereDistance: 0
  - maxDistance: 0.2
    collisionSphereDistance: 3.4028235e+38
  - maxDistance: 0.2
    collisionSphereDistance: 3.4028235e+38
  - maxDistance: 0
    collisionSphereDistance: 0
  - maxDistance: 0
    collisionSphereDistance: 0
  - maxDistance: 0.2
    collisionSphereDistance: 3.4028235e+38
  - maxDistance: 0.2
    collisionSphereDistance: 3.4028235e+38
  - maxDistance: 0
    collisionSphereDistance: 0
  - maxDistance: 0
    collisionSphereDistance: 0
  - maxDistance: 0.2
    collisionSphereDistance: 3.4028235e+38
  - maxDistance: 0.2
    collisionSphereDistance: 3.4028235e+38
  - maxDistance: 0
    collisionSphereDistance: 0
  - maxDistance: 0
    collisionSphereDistance: 0
  - maxDistance: 0.2
    collisionSphereDistance: 3.4028235e+38
  - maxDistance: 5
    collisionSphereDistance: 3.4028235e+38
  - maxDistance: 0
    collisionSphereDistance: 0
  - maxDistance: 0
    collisionSphereDistance: 0
  - maxDistance: 0.2
    collisionSphereDistance: 3.4028235e+38
  - maxDistance: 5
    collisionSphereDistance: 3.4028235e+38
  - maxDistance: 0
    collisionSphereDistance: 0
  - maxDistance: 0
    collisionSphereDistance: 0
  - maxDistance: 0.2
    collisionSphereDistance: 3.4028235e+38
  - maxDistance: 5
    collisionSphereDistance: 3.4028235e+38
  - maxDistance: 0
    collisionSphereDistance: 0
  - maxDistance: 0.2
    collisionSphereDistance: 3.4028235e+38
  - maxDistance: 0.2
    collisionSphereDistance: 3.4028235e+38
  - maxDistance: 0.2
    collisionSphereDistance: 3.4028235e+38
  - maxDistance: 5
    collisionSphereDistance: 3.4028235e+38
  - maxDistance: 5
    collisionSphereDistance: 3.4028235e+38
  - maxDistance: 5
    collisionSphereDistance: 3.4028235e+38
  - maxDistance: 5
    collisionSphereDistance: 3.4028235e+38
  - maxDistance: 5
    collisionSphereDistance: 3.4028235e+38
  - maxDistance: 5
    collisionSphereDistance: 3.4028235e+38
  - maxDistance: 5
    collisionSphereDistance: 3.4028235e+38
  - maxDistance: 5
    collisionSphereDistance: 3.4028235e+38
  - maxDistance: 5
    collisionSphereDistance: 3.4028235e+38
  - maxDistance: 5
    collisionSphereDistance: 3.4028235e+38
  - maxDistance: 5
    collisionSphereDistance: 3.4028235e+38
  - maxDistance: 5
    collisionSphereDistance: 3.4028235e+38
  - maxDistance: 5
    collisionSphereDistance: 3.4028235e+38
  - maxDistance: 5
    collisionSphereDistance: 3.4028235e+38
  - maxDistance: 0.2
    collisionSphereDistance: 3.4028235e+38
  - maxDistance: 5
    collisionSphereDistance: 3.4028235e+38
  - maxDistance: 5
    collisionSphereDistance: 3.4028235e+38
  - maxDistance: 5
    collisionSphereDistance: 3.4028235e+38
  - maxDistance: 5
    collisionSphereDistance: 3.4028235e+38
  - maxDistance: 5
    collisionSphereDistance: 3.4028235e+38
  - maxDistance: 5
    collisionSphereDistance: 3.4028235e+38
  - maxDistance: 5
    collisionSphereDistance: 3.4028235e+38
  - maxDistance: 5
    collisionSphereDistance: 3.4028235e+38
  - maxDistance: 5
    collisionSphereDistance: 3.4028235e+38
  - maxDistance: 5
    collisionSphereDistance: 3.4028235e+38
  - maxDistance: 5
    collisionSphereDistance: 3.4028235e+38
  - maxDistance: 5
    collisionSphereDistance: 3.4028235e+38
  - maxDistance: 5
    collisionSphereDistance: 3.4028235e+38
  - maxDistance: 5
    collisionSphereDistance: 3.4028235e+38
  - maxDistance: 5
    collisionSphereDistance: 3.4028235e+38
  - maxDistance: 5
    collisionSphereDistance: 3.4028235e+38
  - maxDistance: 5
    collisionSphereDistance: 3.4028235e+38
  - maxDistance: 5
    collisionSphereDistance: 3.4028235e+38
  - maxDistance: 5
    collisionSphereDistance: 3.4028235e+38
  - maxDistance: 5
    collisionSphereDistance: 3.4028235e+38
  - maxDistance: 5
    collisionSphereDistance: 3.4028235e+38
  - maxDistance: 5
    collisionSphereDistance: 3.4028235e+38
  - maxDistance: 5
    collisionSphereDistance: 3.4028235e+38
  - maxDistance: 5
    collisionSphereDistance: 3.4028235e+38
  - maxDistance: 5
    collisionSphereDistance: 3.4028235e+38
  - maxDistance: 5
    collisionSphereDistance: 3.4028235e+38
  - maxDistance: 5
    collisionSphereDistance: 3.4028235e+38
  - maxDistance: 5
    collisionSphereDistance: 3.4028235e+38
  - maxDistance: 5
    collisionSphereDistance: 3.4028235e+38
  - maxDistance: 5
    collisionSphereDistance: 3.4028235e+38
  - maxDistance: 5
    collisionSphereDistance: 3.4028235e+38
  - maxDistance: 5
    collisionSphereDistance: 3.4028235e+38
  - maxDistance: 5
    collisionSphereDistance: 3.4028235e+38
  - maxDistance: 5
    collisionSphereDistance: 3.4028235e+38
  - maxDistance: 5
    collisionSphereDistance: 3.4028235e+38
  - maxDistance: 5
    collisionSphereDistance: 3.4028235e+38
  - maxDistance: 5
    collisionSphereDistance: 3.4028235e+38
  - maxDistance: 10
    collisionSphereDistance: 3.4028235e+38
  - maxDistance: 5
    collisionSphereDistance: 3.4028235e+38
  - maxDistance: 5
    collisionSphereDistance: 3.4028235e+38
  - maxDistance: 10
    collisionSphereDistance: 3.4028235e+38
  - maxDistance: 5
    collisionSphereDistance: 3.4028235e+38
  - maxDistance: 10
    collisionSphereDistance: 3.4028235e+38
  - maxDistance: 5
    collisionSphereDistance: 3.4028235e+38
  - maxDistance: 5
    collisionSphereDistance: 3.4028235e+38
  - maxDistance: 5
    collisionSphereDistance: 3.4028235e+38
  - maxDistance: 10
    collisionSphereDistance: 3.4028235e+38
  - maxDistance: 10
    collisionSphereDistance: 3.4028235e+38
  - maxDistance: 5
    collisionSphereDistance: 3.4028235e+38
  - maxDistance: 10
    collisionSphereDistance: 3.4028235e+38
  - maxDistance: 10
    collisionSphereDistance: 3.4028235e+38
  - maxDistance: 10
    collisionSphereDistance: 3.4028235e+38
  - maxDistance: 10
    collisionSphereDistance: 3.4028235e+38
  - maxDistance: 10
    collisionSphereDistance: 3.4028235e+38
  - maxDistance: 10
    collisionSphereDistance: 3.4028235e+38
  - maxDistance: 10
    collisionSphereDistance: 3.4028235e+38
  - maxDistance: 10
    collisionSphereDistance: 3.4028235e+38
  - maxDistance: 10
    collisionSphereDistance: 3.4028235e+38
  - maxDistance: 10
    collisionSphereDistance: 3.4028235e+38
  - maxDistance: 10
    collisionSphereDistance: 3.4028235e+38
  - maxDistance: 10
    collisionSphereDistance: 3.4028235e+38
  - maxDistance: 10
    collisionSphereDistance: 3.4028235e+38
  - maxDistance: 10
    collisionSphereDistance: 3.4028235e+38
  - maxDistance: 10
    collisionSphereDistance: 3.4028235e+38
  - maxDistance: 5
    collisionSphereDistance: 3.4028235e+38
  - maxDistance: 10
    collisionSphereDistance: 3.4028235e+38
  - maxDistance: 5
    collisionSphereDistance: 3.4028235e+38
  - maxDistance: 10
    collisionSphereDistance: 3.4028235e+38
  - maxDistance: 5
    collisionSphereDistance: 3.4028235e+38
  - maxDistance: 10
    collisionSphereDistance: 3.4028235e+38
  - maxDistance: 10
    collisionSphereDistance: 3.4028235e+38
  - maxDistance: 10
    collisionSphereDistance: 3.4028235e+38
  - maxDistance: 10
    collisionSphereDistance: 3.4028235e+38
  - maxDistance: 10
    collisionSphereDistance: 3.4028235e+38
  - maxDistance: 10
    collisionSphereDistance: 3.4028235e+38
  - maxDistance: 10
    collisionSphereDistance: 3.4028235e+38
  - maxDistance: 10
    collisionSphereDistance: 3.4028235e+38
  - maxDistance: 10
    collisionSphereDistance: 3.4028235e+38
  - maxDistance: 10
    collisionSphereDistance: 3.4028235e+38
  - maxDistance: 10
    collisionSphereDistance: 3.4028235e+38
  - maxDistance: 10
    collisionSphereDistance: 3.4028235e+38
  - maxDistance: 10
    collisionSphereDistance: 3.4028235e+38
  - maxDistance: 10
    collisionSphereDistance: 3.4028235e+38
  - maxDistance: 10
    collisionSphereDistance: 3.4028235e+38
  - maxDistance: 10
    collisionSphereDistance: 3.4028235e+38
  - maxDistance: 10
    collisionSphereDistance: 3.4028235e+38
  - maxDistance: 10
    collisionSphereDistance: 3.4028235e+38
  - maxDistance: 10
    collisionSphereDistance: 3.4028235e+38
  - maxDistance: 10
    collisionSphereDistance: 3.4028235e+38
  - maxDistance: 10
    collisionSphereDistance: 3.4028235e+38
  - maxDistance: 10
    collisionSphereDistance: 3.4028235e+38
  - maxDistance: 10
    collisionSphereDistance: 3.4028235e+38
  - maxDistance: 10
    collisionSphereDistance: 3.4028235e+38
  - maxDistance: 15
    collisionSphereDistance: 3.4028235e+38
  - maxDistance: 15
    collisionSphereDistance: 3.4028235e+38
  - maxDistance: 15
    collisionSphereDistance: 3.4028235e+38
  - maxDistance: 15
    collisionSphereDistance: 3.4028235e+38
  - maxDistance: 15
    collisionSphereDistance: 3.4028235e+38
  - maxDistance: 15
    collisionSphereDistance: 3.4028235e+38
  - maxDistance: 10
    collisionSphereDistance: 3.4028235e+38
  - maxDistance: 15
    collisionSphereDistance: 3.4028235e+38
  - maxDistance: 10
    collisionSphereDistance: 3.4028235e+38
  - maxDistance: 15
    collisionSphereDistance: 3.4028235e+38
  - maxDistance: 10
    collisionSphereDistance: 3.4028235e+38
  - maxDistance: 15
    collisionSphereDistance: 3.4028235e+38
  - maxDistance: 15
    collisionSphereDistance: 3.4028235e+38
  - maxDistance: 15
    collisionSphereDistance: 3.4028235e+38
  - maxDistance: 15
    collisionSphereDistance: 3.4028235e+38
  - maxDistance: 15
    collisionSphereDistance: 3.4028235e+38
  - maxDistance: 15
    collisionSphereDistance: 3.4028235e+38
  - maxDistance: 10
    collisionSphereDistance: 3.4028235e+38
  - maxDistance: 15
    collisionSphereDistance: 3.4028235e+38
  - maxDistance: 10
    collisionSphereDistance: 3.4028235e+38
  - maxDistance: 15
    collisionSphereDistance: 3.4028235e+38
  - maxDistance: 15
    collisionSphereDistance: 3.4028235e+38
  - maxDistance: 15
    collisionSphereDistance: 3.4028235e+38
  - maxDistance: 15
    collisionSphereDistance: 3.4028235e+38
  - maxDistance: 15
    collisionSphereDistance: 3.4028235e+38
  - maxDistance: 15
    collisionSphereDistance: 3.4028235e+38
  - maxDistance: 15
    collisionSphereDistance: 3.4028235e+38
  - maxDistance: 15
    collisionSphereDistance: 3.4028235e+38
  - maxDistance: 15
    collisionSphereDistance: 3.4028235e+38
  - maxDistance: 10
    collisionSphereDistance: 3.4028235e+38
  - maxDistance: 15
    collisionSphereDistance: 3.4028235e+38
  - maxDistance: 15
    collisionSphereDistance: 3.4028235e+38
  - maxDistance: 15
    collisionSphereDistance: 3.4028235e+38
  - maxDistance: 15
    collisionSphereDistance: 3.4028235e+38
  - maxDistance: 15
    collisionSphereDistance: 3.4028235e+38
  - maxDistance: 15
    collisionSphereDistance: 3.4028235e+38
  - maxDistance: 15
    collisionSphereDistance: 3.4028235e+38
  - maxDistance: 15
    collisionSphereDistance: 3.4028235e+38
  - maxDistance: 15
    collisionSphereDistance: 3.4028235e+38
  - maxDistance: 15
    collisionSphereDistance: 3.4028235e+38
  - maxDistance: 15
    collisionSphereDistance: 3.4028235e+38
  - maxDistance: 15
    collisionSphereDistance: 3.4028235e+38
  - maxDistance: 15
    collisionSphereDistance: 3.4028235e+38
  - maxDistance: 15
    collisionSphereDistance: 3.4028235e+38
  - maxDistance: 15
    collisionSphereDistance: 3.4028235e+38
  - maxDistance: 15
    collisionSphereDistance: 3.4028235e+38
  - maxDistance: 15
    collisionSphereDistance: 3.4028235e+38
  - maxDistance: 15
    collisionSphereDistance: 3.4028235e+38
  - maxDistance: 15
    collisionSphereDistance: 3.4028235e+38
  - maxDistance: 15
    collisionSphereDistance: 3.4028235e+38
  - maxDistance: 15
    collisionSphereDistance: 3.4028235e+38
  - maxDistance: 15
    collisionSphereDistance: 3.4028235e+38
  - maxDistance: 15
    collisionSphereDistance: 3.4028235e+38
  - maxDistance: 15
    collisionSphereDistance: 3.4028235e+38
  - maxDistance: 15
    collisionSphereDistance: 3.4028235e+38
  - maxDistance: 15
    collisionSphereDistance: 3.4028235e+38
  - maxDistance: 15
    collisionSphereDistance: 3.4028235e+38
  - maxDistance: 15
    collisionSphereDistance: 3.4028235e+38
  - maxDistance: 15
    collisionSphereDistance: 3.4028235e+38
  - maxDistance: 15
    collisionSphereDistance: 3.4028235e+38
  - maxDistance: 15
    collisionSphereDistance: 3.4028235e+38
  - maxDistance: 15
    collisionSphereDistance: 3.4028235e+38
  - maxDistance: 15
    collisionSphereDistance: 3.4028235e+38
  - maxDistance: 15
    collisionSphereDistance: 3.4028235e+38
  - maxDistance: 15
    collisionSphereDistance: 3.4028235e+38
  - maxDistance: 15
    collisionSphereDistance: 3.4028235e+38
  m_CapsuleColliders:
  - {fileID: 0}
  - {fileID: 0}
  - {fileID: 0}
  - {fileID: 0}
  m_SphereColliders: []
  m_SelfCollisionDistance: 0
  m_SelfCollisionStiffness: 0.2
  m_SelfAndInterCollisionIndices: 
  m_VirtualParticleWeights:
  - {x: 0.33333334, y: 0.33333334, z: 0.33333334}
  - {x: 0.6666667, y: 0.16666667, z: 0.16666667}
  - {x: 0.5, y: 0.5, z: 0}
  m_VirtualParticleIndices: 
