%YAML 1.1
%TAG !u! tag:unity3d.com,2011:
--- !u!1001 &6235071160138783075
PrefabInstance:
  m_ObjectHideFlags: 0
  serializedVersion: 2
  m_Modification:
    m_TransformParent: {fileID: 0}
    m_Modifications:
    - target: {fileID: 2875822289310716075, guid: 11e037f07d913b94988d92436aac23a1,
        type: 3}
      propertyPath: m_RootOrder
      value: 0
      objectReference: {fileID: 0}
    - target: {fileID: 8298129553831099432, guid: 11e037f07d913b94988d92436aac23a1,
        type: 3}
      propertyPath: weightLayer
      value: Weight Switch
      objectReference: {fileID: 0}
    - target: {fileID: 8298129553831099432, guid: 11e037f07d913b94988d92436aac23a1,
        type: 3}
      propertyPath: m_Enabled
      value: 0
      objectReference: {fileID: 0}
    - target: {fileID: 8298129553831099443, guid: 11e037f07d913b94988d92436aac23a1,
        type: 3}
      propertyPath: m_Name
      value: tea realm_ground plate push block puzzle
      objectReference: {fileID: 0}
    - target: {fileID: 8298129553831099443, guid: 11e037f07d913b94988d92436aac23a1,
        type: 3}
      propertyPath: m_IsActive
      value: 1
      objectReference: {fileID: 0}
    - target: {fileID: 8298129553831099443, guid: 11e037f07d913b94988d92436aac23a1,
        type: 3}
      propertyPath: m_Layer
      value: 13
      objectReference: {fileID: 0}
    - target: {fileID: 8298129553831099444, guid: 11e037f07d913b94988d92436aac23a1,
        type: 3}
      propertyPath: m_LocalPosition.x
      value: -0.0007817728
      objectReference: {fileID: 0}
    - target: {fileID: 8298129553831099444, guid: 11e037f07d913b94988d92436aac23a1,
        type: 3}
      propertyPath: m_LocalPosition.y
      value: 0.06475
      objectReference: {fileID: 0}
    - target: {fileID: 8298129553831099444, guid: 11e037f07d913b94988d92436aac23a1,
        type: 3}
      propertyPath: m_LocalPosition.z
      value: -0.010913376
      objectReference: {fileID: 0}
    - target: {fileID: 8298129553831099444, guid: 11e037f07d913b94988d92436aac23a1,
        type: 3}
      propertyPath: m_LocalRotation.x
      value: -0
      objectReference: {fileID: 0}
    - target: {fileID: 8298129553831099444, guid: 11e037f07d913b94988d92436aac23a1,
        type: 3}
      propertyPath: m_LocalRotation.y
      value: 0.71293616
      objectReference: {fileID: 0}
    - target: {fileID: 8298129553831099444, guid: 11e037f07d913b94988d92436aac23a1,
        type: 3}
      propertyPath: m_LocalRotation.z
      value: -0
      objectReference: {fileID: 0}
    - target: {fileID: 8298129553831099444, guid: 11e037f07d913b94988d92436aac23a1,
        type: 3}
      propertyPath: m_LocalRotation.w
      value: 0.701229
      objectReference: {fileID: 0}
    - target: {fileID: 8298129553831099444, guid: 11e037f07d913b94988d92436aac23a1,
        type: 3}
      propertyPath: m_RootOrder
      value: 0
      objectReference: {fileID: 0}
    - target: {fileID: 8298129553831099444, guid: 11e037f07d913b94988d92436aac23a1,
        type: 3}
      propertyPath: m_LocalEulerAnglesHint.x
      value: 0
      objectReference: {fileID: 0}
    - target: {fileID: 8298129553831099444, guid: 11e037f07d913b94988d92436aac23a1,
        type: 3}
      propertyPath: m_LocalEulerAnglesHint.y
      value: 45
      objectReference: {fileID: 0}
    - target: {fileID: 8298129553831099444, guid: 11e037f07d913b94988d92436aac23a1,
        type: 3}
      propertyPath: m_LocalEulerAnglesHint.z
      value: 0
      objectReference: {fileID: 0}
    - target: {fileID: 8298129553831099444, guid: 11e037f07d913b94988d92436aac23a1,
        type: 3}
      propertyPath: m_LocalScale.x
      value: 0.025947392
      objectReference: {fileID: 0}
    - target: {fileID: 8298129553831099444, guid: 11e037f07d913b94988d92436aac23a1,
        type: 3}
      propertyPath: m_LocalScale.y
      value: 0.00028389035
      objectReference: {fileID: 0}
    - target: {fileID: 8298129553831099444, guid: 11e037f07d913b94988d92436aac23a1,
        type: 3}
      propertyPath: m_LocalScale.z
      value: 0.025947392
      objectReference: {fileID: 0}
    m_RemovedComponents:
    - {fileID: 8298129553831099432, guid: 11e037f07d913b94988d92436aac23a1, type: 3}
  m_SourcePrefab: {fileID: 100100000, guid: 11e037f07d913b94988d92436aac23a1, type: 3}
