# This file uses centimeters as units for non-parametric coordinates.

mtllib single crystal.mtl
g default
v -1151.406982 590.648438 1120.316895
v -1151.406982 589.514404 1120.316895
v -1152.592529 589.514404 1120.316895
v -1152.592529 590.648438 1120.316895
v -1138.023682 590.648438 1133.127686
v -1138.023682 589.514404 1133.127686
v -1138.023682 589.514404 1132.085449
v -1138.023682 590.648438 1132.085449
v -1152.592529 564.333557 1133.127686
v -1152.592529 564.333557 1132.084961
v -1151.406982 564.333557 1132.084961
v -1151.406982 564.333557 1133.127686
v -1165.976074 590.648438 1132.085449
v -1165.976074 589.514404 1132.085449
v -1165.976074 589.514404 1133.127686
v -1165.976074 590.648438 1133.127686
v -1152.592529 590.648438 1144.895996
v -1152.592529 589.514404 1144.895996
v -1151.406738 589.514404 1144.895996
v -1151.406738 590.648438 1144.895996
v -1151.406982 615.829468 1133.127686
v -1151.406982 615.829468 1132.084961
v -1152.592529 615.829468 1132.084961
v -1152.592529 615.829468 1133.127686
vt 0.080812 0.544492
vt 0.080727 0.544427
vt 0.079640 0.550966
vt 0.079730 0.551002
vt 0.071305 0.544132
vt 0.071305 0.544427
vt 0.073479 0.544427
vt 0.073479 0.544132
vt 0.071220 0.544067
vt 0.072392 0.537593
vt 0.072302 0.537558
vt 0.080727 0.544132
vt 0.078553 0.544132
vt 0.078553 0.544427
vt 0.073565 0.544492
vt 0.072392 0.550966
vt 0.072483 0.551002
vt 0.073721 0.544132
vt 0.073721 0.544427
vt 0.075895 0.544427
vt 0.075895 0.544132
vt 0.073565 0.544067
vt 0.072483 0.537558
vt 0.074898 0.537557
vt 0.074808 0.537593
vt 0.075981 0.544067
vt 0.079640 0.537593
vt 0.079549 0.537558
vt 0.078467 0.544067
vt 0.078467 0.544492
vt 0.079549 0.551002
vt 0.078311 0.544427
vt 0.078311 0.544132
vt 0.076137 0.544132
vt 0.076137 0.544427
vt 0.075981 0.544492
vt 0.074808 0.550966
vt 0.074898 0.551002
vt 0.077224 0.537593
vt 0.077224 0.550966
vt 0.071217 0.544280
vt 0.073568 0.544280
vt 0.072392 0.537461
vt 0.078464 0.544280
vt 0.075984 0.544280
vt 0.079640 0.551099
vn 0.000000 0.408227 -0.912881
vn 0.000000 0.408227 -0.912881
vn 0.000000 0.423374 -0.905955
vn 0.000000 0.423374 -0.905955
vn 0.629626 -0.301491 -0.716013
vn 0.629624 0.301490 -0.716015
vn 0.629981 0.299777 -0.716420
vn 0.629982 -0.299778 -0.716419
vn 0.000000 -0.408229 -0.912879
vn 0.000000 -0.408229 -0.912879
vn 0.000000 -0.423377 -0.905954
vn 0.000000 -0.423377 -0.905954
vn -0.629617 0.301491 -0.716020
vn -0.629619 -0.301492 -0.716019
vn -0.629976 -0.299779 -0.716424
vn -0.629974 0.299778 -0.716426
vn 0.891341 0.453334 0.000000
vn 0.891341 0.453334 0.000000
vn 0.883026 0.469325 0.000000
vn 0.883026 0.469325 0.000000
vn 0.629978 -0.299788 0.716418
vn 0.629982 0.299786 0.716416
vn 0.629625 0.301499 0.716010
vn 0.629621 -0.301501 0.716013
vn 0.891341 -0.453334 0.000000
vn 0.891341 -0.453334 0.000000
vn 0.883025 -0.469325 0.000000
vn 0.883025 -0.469325 0.000000
vn 0.000000 -0.423390 0.905947
vn 0.000000 -0.423390 0.905947
vn 0.000000 -0.408240 0.912875
vn 0.000000 -0.408240 0.912875
vn -0.883020 -0.469335 0.000000
vn -0.883020 -0.469335 0.000000
vn -0.891336 -0.453343 0.000000
vn -0.891336 -0.453344 0.000000
vn -0.891336 0.453344 0.000000
vn -0.891336 0.453343 0.000000
vn -0.883020 0.469335 0.000000
vn -0.883020 0.469335 0.000000
vn -0.629967 0.299786 0.716428
vn -0.629965 -0.299789 0.716430
vn -0.629608 -0.301502 0.716024
vn -0.629611 0.301499 0.716023
vn 0.000000 0.408238 0.912876
vn 0.000000 0.408238 0.912876
vn 0.000000 0.423387 0.905949
vn 0.000000 0.423387 0.905949
vn 0.629626 -0.301491 -0.716013
vn 0.629982 -0.299778 -0.716419
vn 0.623094 -0.331152 -0.708584
vn -0.623087 -0.331153 -0.708591
vn -0.629976 -0.299779 -0.716424
vn -0.629619 -0.301492 -0.716019
vn 0.629978 -0.299788 0.716418
vn 0.629621 -0.301501 0.716013
vn 0.623089 -0.331162 0.708585
vn -0.629608 -0.301502 0.716024
vn -0.629965 -0.299789 0.716430
vn -0.623075 -0.331163 0.708596
vn -0.629617 0.301491 -0.716020
vn -0.629974 0.299778 -0.716426
vn -0.623085 0.331152 -0.708593
vn 0.623092 0.331151 -0.708587
vn 0.629981 0.299777 -0.716420
vn 0.629624 0.301490 -0.716015
vn 0.623093 0.331160 0.708582
vn 0.629625 0.301499 0.716010
vn 0.629982 0.299786 0.716416
vn -0.623078 0.331161 0.708594
vn -0.629967 0.299786 0.716428
vn -0.629611 0.301499 0.716023
vn 0.000000 0.408227 -0.912881
vn 0.000000 -0.408229 -0.912879
vn 0.000000 -0.408229 -0.912879
vn 0.000000 0.408227 -0.912881
vn 0.891341 0.453334 0.000000
vn 0.891341 -0.453334 0.000000
vn 0.891341 -0.453334 0.000000
vn 0.891341 0.453334 0.000000
vn 0.000000 -1.000000 0.000000
vn 0.000000 -1.000000 0.000000
vn 0.000000 -1.000000 0.000000
vn 0.000000 -1.000000 0.000000
vn -0.891336 0.453344 0.000000
vn -0.891336 -0.453344 0.000000
vn -0.891336 -0.453343 0.000000
vn -0.891336 0.453343 0.000000
vn 0.000000 0.408238 0.912876
vn 0.000000 -0.408240 0.912875
vn 0.000000 -0.408240 0.912875
vn 0.000000 0.408238 0.912876
vn 0.000000 1.000000 0.000000
vn 0.000000 1.000000 0.000000
vn 0.000000 1.000000 0.000000
vn 0.000000 1.000000 0.000000
s off
g polySurface19 Spooky_Candles SpookyRealm
usemtl Spooky_StaircaseSG
f 1/1/1 4/2/2 23/3/3 22/4/4
f 2/5/5 1/6/6 8/7/7 7/8/8
f 3/9/9 2/5/10 11/10/11 10/11/12
f 4/2/13 3/12/14 14/13/15 13/14/16
f 5/15/17 8/7/18 22/16/19 21/17/20
f 6/18/21 5/19/22 20/20/23 19/21/24
f 7/8/25 6/22/26 12/23/27 11/10/28
f 9/24/29 12/25/30 19/21/31 18/26/32
f 10/27/33 9/28/34 15/29/35 14/13/36
f 13/14/37 16/30/38 24/31/39 23/3/40
f 16/32/41 15/33/42 18/34/43 17/35/44
f 17/36/45 20/20/46 21/37/47 24/38/48
f 2/5/49 7/8/50 11/10/51
f 10/27/52 14/13/53 3/12/54
f 6/18/55 19/21/56 12/25/57
f 18/34/58 15/33/59 9/39/60
f 4/2/61 13/14/62 23/3/63
f 22/16/64 8/7/65 1/6/66
f 21/37/67 20/20/68 5/19/69
f 24/40/70 16/32/71 17/35/72
f 1/6/73 2/5/74 3/9/75 4/41/76
f 5/42/77 6/22/78 7/8/79 8/7/80
f 9/43/81 10/11/82 11/10/83 12/23/84
f 13/14/85 14/13/86 15/29/87 16/44/88
f 17/45/89 18/26/90 19/21/91 20/20/92
f 21/46/93 22/4/94 23/3/95 24/31/96
